%YAML 1.1
%TAG !u! tag:unity3d.com,2011:
--- !u!114 &11400000
MonoBehaviour:
  m_ObjectHideFlags: 0
  m_CorrespondingSourceObject: {fileID: 0}
  m_PrefabInstance: {fileID: 0}
  m_PrefabAsset: {fileID: 0}
  m_GameObject: {fileID: 0}
  m_Enabled: 1
  m_EditorHideFlags: 0
  m_Script: {fileID: 11500000, guid: c3b1ebc063298c04c8eec2e03434d6b9, type: 3}
  m_Name: 22 Lightsword
  m_EditorClassIdentifier: 
  id: 16
  weaponName: Lightsword
  cost: 1200
  unlocksAtLevel: 0
  itemUnlockMethod: 1
  isDefault: 0
  icon: {fileID: 21300000, guid: cd2e3ed7466a4574e918491031542fab, type: 3}
  shopItemType: 0
  damage: 18
