%YAML 1.1
%TAG !u! tag:unity3d.com,2011:
--- !u!114 &11400000
MonoBehaviour:
  m_ObjectHideFlags: 0
  m_CorrespondingSourceObject: {fileID: 0}
  m_PrefabInstance: {fileID: 0}
  m_PrefabAsset: {fileID: 0}
  m_GameObject: {fileID: 0}
  m_Enabled: 1
  m_EditorHideFlags: 0
  m_Script: {fileID: 11500000, guid: c3b1ebc063298c04c8eec2e03434d6b9, type: 3}
  m_Name: 5 Fat Arm XL
  m_EditorClassIdentifier: 
  id: 5
  weaponName: Fat Arm XL
  cost: 0
  unlocksAtLevel: 0
  itemUnlockMethod: 0
  isDefault: 0
  icon: {fileID: 21300000, guid: a69de3643089ee0469dabe2024bafbc1, type: 3}
  shopItemType: 30
  damage: 0
