%YAML 1.1
%TAG !u! tag:unity3d.com,2011:
--- !u!114 &11400000
MonoBehaviour:
  m_ObjectHideFlags: 0
  m_CorrespondingSourceObject: {fileID: 0}
  m_PrefabInstance: {fileID: 0}
  m_PrefabAsset: {fileID: 0}
  m_GameObject: {fileID: 0}
  m_Enabled: 1
  m_EditorHideFlags: 0
  m_Script: {fileID: 11500000, guid: c3b1ebc063298c04c8eec2e03434d6b9, type: 3}
  m_Name: 9 Wiggle Arm M
  m_EditorClassIdentifier: 
  id: 9
  weaponName: Wiggle Arm M
  cost: 750
  unlocksAtLevel: 0
  itemUnlockMethod: 1
  isDefault: 0
  icon: {fileID: 21300000, guid: 5f179b95a4f063e4ba8f3f355a4d572e, type: 3}
  shopItemType: 30
  damage: 0
