%YAML 1.1
%TAG !u! tag:unity3d.com,2011:
--- !u!1001 &8752129116528288148
PrefabInstance:
  m_ObjectHideFlags: 0
  serializedVersion: 2
  m_Modification:
    m_TransformParent: {fileID: 0}
    m_Modifications:
    - target: {fileID: 470151531195176395, guid: 8a80e0db349f35a499b6e771defcc1dd, type: 3}
      propertyPath: m_LocalScale.x
      value: 0.91431504
      objectReference: {fileID: 0}
    - target: {fileID: 470151531195176395, guid: 8a80e0db349f35a499b6e771defcc1dd, type: 3}
      propertyPath: m_LocalScale.y
      value: 0.91431504
      objectReference: {fileID: 0}
    - target: {fileID: 470151531195176395, guid: 8a80e0db349f35a499b6e771defcc1dd, type: 3}
      propertyPath: m_LocalScale.z
      value: 0.91431504
      objectReference: {fileID: 0}
    - target: {fileID: 470151531195176395, guid: 8a80e0db349f35a499b6e771defcc1dd, type: 3}
      propertyPath: m_LocalPosition.x
      value: -0.02
      objectReference: {fileID: 0}
    - target: {fileID: 470151531195176395, guid: 8a80e0db349f35a499b6e771defcc1dd, type: 3}
      propertyPath: m_LocalPosition.y
      value: 2.21
      objectReference: {fileID: 0}
    - target: {fileID: 470151531195176397, guid: 8a80e0db349f35a499b6e771defcc1dd, type: 3}
      propertyPath: m_Enabled
      value: 0
      objectReference: {fileID: 0}
    - target: {fileID: 470151531195176397, guid: 8a80e0db349f35a499b6e771defcc1dd, type: 3}
      propertyPath: m_SpriteTilingProperty.oldSize.x
      value: 1.28
      objectReference: {fileID: 0}
    - target: {fileID: 470151531195176398, guid: 8a80e0db349f35a499b6e771defcc1dd, type: 3}
      propertyPath: m_Sprite
      value: 
      objectReference: {fileID: 21300000, guid: ad90939328b51304391c2737752c565e, type: 3}
    - target: {fileID: 470151531195176399, guid: 8a80e0db349f35a499b6e771defcc1dd, type: 3}
      propertyPath: m_SpriteTilingProperty.oldSize.x
      value: 1.28
      objectReference: {fileID: 0}
    - target: {fileID: 470151531195176399, guid: 8a80e0db349f35a499b6e771defcc1dd, type: 3}
      propertyPath: m_SpriteTilingProperty.oldSize.y
      value: 5.12
      objectReference: {fileID: 0}
    - target: {fileID: 470151532077630696, guid: 8a80e0db349f35a499b6e771defcc1dd, type: 3}
      propertyPath: m_RootOrder
      value: 0
      objectReference: {fileID: 0}
    - target: {fileID: 470151532077630696, guid: 8a80e0db349f35a499b6e771defcc1dd, type: 3}
      propertyPath: m_LocalPosition.x
      value: 0
      objectReference: {fileID: 0}
    - target: {fileID: 470151532077630696, guid: 8a80e0db349f35a499b6e771defcc1dd, type: 3}
      propertyPath: m_LocalPosition.y
      value: 0
      objectReference: {fileID: 0}
    - target: {fileID: 470151532077630696, guid: 8a80e0db349f35a499b6e771defcc1dd, type: 3}
      propertyPath: m_LocalPosition.z
      value: 0
      objectReference: {fileID: 0}
    - target: {fileID: 470151532077630696, guid: 8a80e0db349f35a499b6e771defcc1dd, type: 3}
      propertyPath: m_LocalRotation.w
      value: 1
      objectReference: {fileID: 0}
    - target: {fileID: 470151532077630696, guid: 8a80e0db349f35a499b6e771defcc1dd, type: 3}
      propertyPath: m_LocalRotation.z
      value: 0
      objectReference: {fileID: 0}
    - target: {fileID: 470151532077630696, guid: 8a80e0db349f35a499b6e771defcc1dd, type: 3}
      propertyPath: m_LocalEulerAnglesHint.x
      value: 0
      objectReference: {fileID: 0}
    - target: {fileID: 470151532077630696, guid: 8a80e0db349f35a499b6e771defcc1dd, type: 3}
      propertyPath: m_LocalEulerAnglesHint.y
      value: 0
      objectReference: {fileID: 0}
    - target: {fileID: 470151532077630696, guid: 8a80e0db349f35a499b6e771defcc1dd, type: 3}
      propertyPath: m_LocalEulerAnglesHint.z
      value: 0
      objectReference: {fileID: 0}
    - target: {fileID: 470151532077630697, guid: 8a80e0db349f35a499b6e771defcc1dd, type: 3}
      propertyPath: m_Name
      value: 13 Katana UI
      objectReference: {fileID: 0}
    - target: {fileID: 470151532077630699, guid: 8a80e0db349f35a499b6e771defcc1dd, type: 3}
      propertyPath: id
      value: 13
      objectReference: {fileID: 0}
    - target: {fileID: 470151532077630699, guid: 8a80e0db349f35a499b6e771defcc1dd, type: 3}
      propertyPath: weight
      value: 3
      objectReference: {fileID: 0}
    - target: {fileID: 470151532077630701, guid: 8a80e0db349f35a499b6e771defcc1dd, type: 3}
      propertyPath: m_Size.y
      value: 4.8481226
      objectReference: {fileID: 0}
    - target: {fileID: 470151532077630701, guid: 8a80e0db349f35a499b6e771defcc1dd, type: 3}
      propertyPath: m_Offset.y
      value: 2.1671515
      objectReference: {fileID: 0}
    - target: {fileID: 470151532186520518, guid: 8a80e0db349f35a499b6e771defcc1dd, type: 3}
      propertyPath: m_IsActive
      value: 0
      objectReference: {fileID: 0}
    - target: {fileID: 470151532186520569, guid: 8a80e0db349f35a499b6e771defcc1dd, type: 3}
      propertyPath: m_LocalPosition.x
      value: 0
      objectReference: {fileID: 0}
    - target: {fileID: 470151532186520569, guid: 8a80e0db349f35a499b6e771defcc1dd, type: 3}
      propertyPath: m_LocalPosition.y
      value: 5.312
      objectReference: {fileID: 0}
    - target: {fileID: 6353207758669845592, guid: 8a80e0db349f35a499b6e771defcc1dd, type: 3}
      propertyPath: m_LocalPosition.x
      value: -0.09
      objectReference: {fileID: 0}
    - target: {fileID: 6353207758669845592, guid: 8a80e0db349f35a499b6e771defcc1dd, type: 3}
      propertyPath: m_LocalPosition.y
      value: 4.19
      objectReference: {fileID: 0}
    m_RemovedComponents:
    - {fileID: 470151531195176397, guid: 8a80e0db349f35a499b6e771defcc1dd, type: 3}
  m_SourcePrefab: {fileID: 100100000, guid: 8a80e0db349f35a499b6e771defcc1dd, type: 3}
--- !u!1 &9219888079986963548 stripped
GameObject:
  m_CorrespondingSourceObject: {fileID: 470151531195176392, guid: 8a80e0db349f35a499b6e771defcc1dd, type: 3}
  m_PrefabInstance: {fileID: 8752129116528288148}
  m_PrefabAsset: {fileID: 0}
--- !u!60 &2202798779044510762
PolygonCollider2D:
  m_ObjectHideFlags: 0
  m_CorrespondingSourceObject: {fileID: 0}
  m_PrefabInstance: {fileID: 0}
  m_PrefabAsset: {fileID: 0}
  m_GameObject: {fileID: 9219888079986963548}
  m_Enabled: 1
  m_Density: 1
  m_Material: {fileID: 0}
  m_IsTrigger: 1
  m_UsedByEffector: 0
  m_UsedByComposite: 0
  m_Offset: {x: 0, y: 0}
  m_SpriteTilingProperty:
    border: {x: 0, y: 0, z: 0, w: 0}
    pivot: {x: 0.5, y: 0.5}
    oldSize: {x: 1.28, y: 5.12}
    newSize: {x: 1, y: 1}
    adaptiveTilingThreshold: 0.5
    drawMode: 0
    adaptiveTiling: 0
  m_AutoTiling: 0
  m_Points:
    m_Paths:
    - - {x: 0.22999999, y: -1.48}
      - {x: 0.25, y: -1.43}
      - {x: 0.25, y: -1.36}
      - {x: 0.17, y: -1.3399999}
      - {x: 0.17, y: -0.52}
      - {x: 0.14999999, y: 0.04}
      - {x: 0.13, y: 0.42999998}
      - {x: 0.11, y: 0.74}
      - {x: 0.089999996, y: 1.02}
      - {x: 0.06, y: 1.4}
      - {x: 0.03, y: 1.74}
      - {x: -0.01, y: 2.1}
      - {x: -0.04, y: 2.33}
      - {x: -0.12, y: 2.52}
      - {x: -0.17, y: 2.56}
      - {x: -0.25, y: 2.56}
      - {x: -0.25, y: 2.48}
      - {x: -0.17999999, y: 1.9399999}
      - {x: -0.089999996, y: 1.06}
      - {x: -0.08, y: 0.95}
      - {x: -0.02, y: -0.07}
      - {x: -0.01, y: -0.31}
      - {x: 0, y: -0.32}
      - {x: 0, y: -1.35}
      - {x: -0.08, y: -1.3399999}
      - {x: -0.12, y: -1.42}
      - {x: -0.03, y: -1.48}
      - {x: -0.049999997, y: -2.23}
      - {x: -0.06, y: -2.55}
      - {x: -0.03, y: -2.56}
      - {x: 0.11, y: -2.56}
      - {x: 0.13, y: -2.54}
      - {x: 0.14, y: -2.1499999}
      - {x: 0.16, y: -1.67}
