%YAML 1.1
%TAG !u! tag:unity3d.com,2011:
--- !u!1001 &8752129116528288148
PrefabInstance:
  m_ObjectHideFlags: 0
  serializedVersion: 2
  m_Modification:
    m_TransformParent: {fileID: 0}
    m_Modifications:
    - target: {fileID: 470151531195176395, guid: 8a80e0db349f35a499b6e771defcc1dd, type: 3}
      propertyPath: m_LocalScale.x
      value: 0.3
      objectReference: {fileID: 0}
    - target: {fileID: 470151531195176395, guid: 8a80e0db349f35a499b6e771defcc1dd, type: 3}
      propertyPath: m_LocalScale.y
      value: 0.3
      objectReference: {fileID: 0}
    - target: {fileID: 470151531195176395, guid: 8a80e0db349f35a499b6e771defcc1dd, type: 3}
      propertyPath: m_LocalScale.z
      value: 1
      objectReference: {fileID: 0}
    - target: {fileID: 470151531195176395, guid: 8a80e0db349f35a499b6e771defcc1dd, type: 3}
      propertyPath: m_LocalPosition.x
      value: -0
      objectReference: {fileID: 0}
    - target: {fileID: 470151531195176395, guid: 8a80e0db349f35a499b6e771defcc1dd, type: 3}
      propertyPath: m_LocalPosition.y
      value: 0.63
      objectReference: {fileID: 0}
    - target: {fileID: 470151531195176397, guid: 8a80e0db349f35a499b6e771defcc1dd, type: 3}
      propertyPath: m_Enabled
      value: 0
      objectReference: {fileID: 0}
    - target: {fileID: 470151531195176397, guid: 8a80e0db349f35a499b6e771defcc1dd, type: 3}
      propertyPath: m_SpriteTilingProperty.oldSize.x
      value: 1.28
      objectReference: {fileID: 0}
    - target: {fileID: 470151531195176398, guid: 8a80e0db349f35a499b6e771defcc1dd, type: 3}
      propertyPath: m_Sprite
      value: 
      objectReference: {fileID: 21300000, guid: 65b1c52472a7e37418b1338476f7db9e, type: 3}
    - target: {fileID: 470151531195176399, guid: 8a80e0db349f35a499b6e771defcc1dd, type: 3}
      propertyPath: m_SpriteTilingProperty.oldSize.x
      value: 5.12
      objectReference: {fileID: 0}
    - target: {fileID: 470151531195176399, guid: 8a80e0db349f35a499b6e771defcc1dd, type: 3}
      propertyPath: m_SpriteTilingProperty.oldSize.y
      value: 5.12
      objectReference: {fileID: 0}
    - target: {fileID: 470151532077630696, guid: 8a80e0db349f35a499b6e771defcc1dd, type: 3}
      propertyPath: m_RootOrder
      value: 0
      objectReference: {fileID: 0}
    - target: {fileID: 470151532077630696, guid: 8a80e0db349f35a499b6e771defcc1dd, type: 3}
      propertyPath: m_LocalPosition.x
      value: 0
      objectReference: {fileID: 0}
    - target: {fileID: 470151532077630696, guid: 8a80e0db349f35a499b6e771defcc1dd, type: 3}
      propertyPath: m_LocalPosition.y
      value: 0
      objectReference: {fileID: 0}
    - target: {fileID: 470151532077630696, guid: 8a80e0db349f35a499b6e771defcc1dd, type: 3}
      propertyPath: m_LocalPosition.z
      value: 0
      objectReference: {fileID: 0}
    - target: {fileID: 470151532077630696, guid: 8a80e0db349f35a499b6e771defcc1dd, type: 3}
      propertyPath: m_LocalRotation.w
      value: 1
      objectReference: {fileID: 0}
    - target: {fileID: 470151532077630696, guid: 8a80e0db349f35a499b6e771defcc1dd, type: 3}
      propertyPath: m_LocalRotation.z
      value: 0
      objectReference: {fileID: 0}
    - target: {fileID: 470151532077630696, guid: 8a80e0db349f35a499b6e771defcc1dd, type: 3}
      propertyPath: m_LocalEulerAnglesHint.x
      value: 0
      objectReference: {fileID: 0}
    - target: {fileID: 470151532077630696, guid: 8a80e0db349f35a499b6e771defcc1dd, type: 3}
      propertyPath: m_LocalEulerAnglesHint.y
      value: 0
      objectReference: {fileID: 0}
    - target: {fileID: 470151532077630696, guid: 8a80e0db349f35a499b6e771defcc1dd, type: 3}
      propertyPath: m_LocalEulerAnglesHint.z
      value: 0
      objectReference: {fileID: 0}
    - target: {fileID: 470151532077630697, guid: 8a80e0db349f35a499b6e771defcc1dd, type: 3}
      propertyPath: m_Name
      value: 21 Shabby Chakram UI
      objectReference: {fileID: 0}
    - target: {fileID: 470151532077630699, guid: 8a80e0db349f35a499b6e771defcc1dd, type: 3}
      propertyPath: id
      value: 21
      objectReference: {fileID: 0}
    - target: {fileID: 470151532077630699, guid: 8a80e0db349f35a499b6e771defcc1dd, type: 3}
      propertyPath: weight
      value: 1
      objectReference: {fileID: 0}
    - target: {fileID: 470151532077630701, guid: 8a80e0db349f35a499b6e771defcc1dd, type: 3}
      propertyPath: m_Size.y
      value: 4.3845515
      objectReference: {fileID: 0}
    - target: {fileID: 470151532077630701, guid: 8a80e0db349f35a499b6e771defcc1dd, type: 3}
      propertyPath: m_Offset.y
      value: 1.9353654
      objectReference: {fileID: 0}
    - target: {fileID: 470151532186520518, guid: 8a80e0db349f35a499b6e771defcc1dd, type: 3}
      propertyPath: m_IsActive
      value: 0
      objectReference: {fileID: 0}
    - target: {fileID: 470151532186520569, guid: 8a80e0db349f35a499b6e771defcc1dd, type: 3}
      propertyPath: m_LocalPosition.x
      value: -0
      objectReference: {fileID: 0}
    - target: {fileID: 470151532186520569, guid: 8a80e0db349f35a499b6e771defcc1dd, type: 3}
      propertyPath: m_LocalPosition.y
      value: 1.992
      objectReference: {fileID: 0}
    - target: {fileID: 6353207758669845592, guid: 8a80e0db349f35a499b6e771defcc1dd, type: 3}
      propertyPath: m_LocalPosition.x
      value: 0
      objectReference: {fileID: 0}
    - target: {fileID: 6353207758669845592, guid: 8a80e0db349f35a499b6e771defcc1dd, type: 3}
      propertyPath: m_LocalPosition.y
      value: 1.218
      objectReference: {fileID: 0}
    m_RemovedComponents:
    - {fileID: 470151531195176397, guid: 8a80e0db349f35a499b6e771defcc1dd, type: 3}
    - {fileID: 470151532077630701, guid: 8a80e0db349f35a499b6e771defcc1dd, type: 3}
  m_SourcePrefab: {fileID: 100100000, guid: 8a80e0db349f35a499b6e771defcc1dd, type: 3}
--- !u!1 &9219888081238386045 stripped
GameObject:
  m_CorrespondingSourceObject: {fileID: 470151532077630697, guid: 8a80e0db349f35a499b6e771defcc1dd, type: 3}
  m_PrefabInstance: {fileID: 8752129116528288148}
  m_PrefabAsset: {fileID: 0}
--- !u!1 &9219888079986963548 stripped
GameObject:
  m_CorrespondingSourceObject: {fileID: 470151531195176392, guid: 8a80e0db349f35a499b6e771defcc1dd, type: 3}
  m_PrefabInstance: {fileID: 8752129116528288148}
  m_PrefabAsset: {fileID: 0}
--- !u!58 &7321807118446859144
CircleCollider2D:
  m_ObjectHideFlags: 0
  m_CorrespondingSourceObject: {fileID: 0}
  m_PrefabInstance: {fileID: 0}
  m_PrefabAsset: {fileID: 0}
  m_GameObject: {fileID: 9219888081238386045}
  m_Enabled: 1
  m_Density: 1
  m_Material: {fileID: 0}
  m_IsTrigger: 0
  m_UsedByEffector: 0
  m_UsedByComposite: 0
  m_Offset: {x: -0.000000075030506, y: 0.6294016}
  serializedVersion: 2
  m_Radius: 0.68137795
--- !u!58 &2221024070303514714
CircleCollider2D:
  m_ObjectHideFlags: 0
  m_CorrespondingSourceObject: {fileID: 0}
  m_PrefabInstance: {fileID: 0}
  m_PrefabAsset: {fileID: 0}
  m_GameObject: {fileID: 9219888079986963548}
  m_Enabled: 1
  m_Density: 1
  m_Material: {fileID: 0}
  m_IsTrigger: 1
  m_UsedByEffector: 0
  m_UsedByComposite: 0
  m_Offset: {x: 0, y: 0}
  serializedVersion: 2
  m_Radius: 2.2
