%YAML 1.1
%TAG !u! tag:unity3d.com,2011:
--- !u!1001 &8752129116528288148
PrefabInstance:
  m_ObjectHideFlags: 0
  serializedVersion: 2
  m_Modification:
    m_TransformParent: {fileID: 0}
    m_Modifications:
    - target: {fileID: 470151531195176395, guid: 8a80e0db349f35a499b6e771defcc1dd, type: 3}
      propertyPath: m_LocalScale.x
      value: 0.7
      objectReference: {fileID: 0}
    - target: {fileID: 470151531195176395, guid: 8a80e0db349f35a499b6e771defcc1dd, type: 3}
      propertyPath: m_LocalScale.y
      value: 0.7
      objectReference: {fileID: 0}
    - target: {fileID: 470151531195176395, guid: 8a80e0db349f35a499b6e771defcc1dd, type: 3}
      propertyPath: m_LocalScale.z
      value: 0.54231244
      objectReference: {fileID: 0}
    - target: {fileID: 470151531195176395, guid: 8a80e0db349f35a499b6e771defcc1dd, type: 3}
      propertyPath: m_LocalPosition.x
      value: -0
      objectReference: {fileID: 0}
    - target: {fileID: 470151531195176395, guid: 8a80e0db349f35a499b6e771defcc1dd, type: 3}
      propertyPath: m_LocalPosition.y
      value: 1.17
      objectReference: {fileID: 0}
    - target: {fileID: 470151531195176397, guid: 8a80e0db349f35a499b6e771defcc1dd, type: 3}
      propertyPath: m_Enabled
      value: 0
      objectReference: {fileID: 0}
    - target: {fileID: 470151531195176397, guid: 8a80e0db349f35a499b6e771defcc1dd, type: 3}
      propertyPath: m_SpriteTilingProperty.oldSize.x
      value: 1.28
      objectReference: {fileID: 0}
    - target: {fileID: 470151531195176398, guid: 8a80e0db349f35a499b6e771defcc1dd, type: 3}
      propertyPath: m_Sprite
      value: 
      objectReference: {fileID: 21300000, guid: 65ab1e61b9b26c34db8d32282460eb63, type: 3}
    - target: {fileID: 470151531195176399, guid: 8a80e0db349f35a499b6e771defcc1dd, type: 3}
      propertyPath: m_SpriteTilingProperty.oldSize.x
      value: 5.12
      objectReference: {fileID: 0}
    - target: {fileID: 470151531195176399, guid: 8a80e0db349f35a499b6e771defcc1dd, type: 3}
      propertyPath: m_SpriteTilingProperty.oldSize.y
      value: 5.12
      objectReference: {fileID: 0}
    - target: {fileID: 470151532077630696, guid: 8a80e0db349f35a499b6e771defcc1dd, type: 3}
      propertyPath: m_RootOrder
      value: 0
      objectReference: {fileID: 0}
    - target: {fileID: 470151532077630696, guid: 8a80e0db349f35a499b6e771defcc1dd, type: 3}
      propertyPath: m_LocalPosition.x
      value: 0
      objectReference: {fileID: 0}
    - target: {fileID: 470151532077630696, guid: 8a80e0db349f35a499b6e771defcc1dd, type: 3}
      propertyPath: m_LocalPosition.y
      value: 0
      objectReference: {fileID: 0}
    - target: {fileID: 470151532077630696, guid: 8a80e0db349f35a499b6e771defcc1dd, type: 3}
      propertyPath: m_LocalPosition.z
      value: 0
      objectReference: {fileID: 0}
    - target: {fileID: 470151532077630696, guid: 8a80e0db349f35a499b6e771defcc1dd, type: 3}
      propertyPath: m_LocalRotation.w
      value: 1
      objectReference: {fileID: 0}
    - target: {fileID: 470151532077630696, guid: 8a80e0db349f35a499b6e771defcc1dd, type: 3}
      propertyPath: m_LocalRotation.z
      value: 0
      objectReference: {fileID: 0}
    - target: {fileID: 470151532077630696, guid: 8a80e0db349f35a499b6e771defcc1dd, type: 3}
      propertyPath: m_LocalEulerAnglesHint.x
      value: 0
      objectReference: {fileID: 0}
    - target: {fileID: 470151532077630696, guid: 8a80e0db349f35a499b6e771defcc1dd, type: 3}
      propertyPath: m_LocalEulerAnglesHint.y
      value: 0
      objectReference: {fileID: 0}
    - target: {fileID: 470151532077630696, guid: 8a80e0db349f35a499b6e771defcc1dd, type: 3}
      propertyPath: m_LocalEulerAnglesHint.z
      value: 0
      objectReference: {fileID: 0}
    - target: {fileID: 470151532077630697, guid: 8a80e0db349f35a499b6e771defcc1dd, type: 3}
      propertyPath: m_Name
      value: 26 Anchor UI
      objectReference: {fileID: 0}
    - target: {fileID: 470151532077630699, guid: 8a80e0db349f35a499b6e771defcc1dd, type: 3}
      propertyPath: id
      value: 26
      objectReference: {fileID: 0}
    - target: {fileID: 470151532077630699, guid: 8a80e0db349f35a499b6e771defcc1dd, type: 3}
      propertyPath: weight
      value: 3
      objectReference: {fileID: 0}
    - target: {fileID: 470151532077630701, guid: 8a80e0db349f35a499b6e771defcc1dd, type: 3}
      propertyPath: m_Size.x
      value: 3.176434
      objectReference: {fileID: 0}
    - target: {fileID: 470151532077630701, guid: 8a80e0db349f35a499b6e771defcc1dd, type: 3}
      propertyPath: m_Size.y
      value: 3.410133
      objectReference: {fileID: 0}
    - target: {fileID: 470151532077630701, guid: 8a80e0db349f35a499b6e771defcc1dd, type: 3}
      propertyPath: m_Offset.x
      value: 0
      objectReference: {fileID: 0}
    - target: {fileID: 470151532077630701, guid: 8a80e0db349f35a499b6e771defcc1dd, type: 3}
      propertyPath: m_Offset.y
      value: 1.4481561
      objectReference: {fileID: 0}
    - target: {fileID: 470151532186520518, guid: 8a80e0db349f35a499b6e771defcc1dd, type: 3}
      propertyPath: m_IsActive
      value: 0
      objectReference: {fileID: 0}
    - target: {fileID: 470151532186520569, guid: 8a80e0db349f35a499b6e771defcc1dd, type: 3}
      propertyPath: m_LocalPosition.x
      value: 0
      objectReference: {fileID: 0}
    - target: {fileID: 470151532186520569, guid: 8a80e0db349f35a499b6e771defcc1dd, type: 3}
      propertyPath: m_LocalPosition.y
      value: 3.4
      objectReference: {fileID: 0}
    - target: {fileID: 6353207758669845592, guid: 8a80e0db349f35a499b6e771defcc1dd, type: 3}
      propertyPath: m_LocalPosition.x
      value: 0.01
      objectReference: {fileID: 0}
    - target: {fileID: 6353207758669845592, guid: 8a80e0db349f35a499b6e771defcc1dd, type: 3}
      propertyPath: m_LocalPosition.y
      value: 2.32
      objectReference: {fileID: 0}
    m_RemovedComponents:
    - {fileID: 470151531195176397, guid: 8a80e0db349f35a499b6e771defcc1dd, type: 3}
  m_SourcePrefab: {fileID: 100100000, guid: 8a80e0db349f35a499b6e771defcc1dd, type: 3}
--- !u!1 &9219888079986963548 stripped
GameObject:
  m_CorrespondingSourceObject: {fileID: 470151531195176392, guid: 8a80e0db349f35a499b6e771defcc1dd, type: 3}
  m_PrefabInstance: {fileID: 8752129116528288148}
  m_PrefabAsset: {fileID: 0}
--- !u!60 &2843161648205741654
PolygonCollider2D:
  m_ObjectHideFlags: 0
  m_CorrespondingSourceObject: {fileID: 0}
  m_PrefabInstance: {fileID: 0}
  m_PrefabAsset: {fileID: 0}
  m_GameObject: {fileID: 9219888079986963548}
  m_Enabled: 1
  m_Density: 1
  m_Material: {fileID: 0}
  m_IsTrigger: 1
  m_UsedByEffector: 0
  m_UsedByComposite: 0
  m_Offset: {x: 0, y: 0}
  m_SpriteTilingProperty:
    border: {x: 0, y: 0, z: 0, w: 0}
    pivot: {x: 0.5, y: 0.5}
    oldSize: {x: 5.12, y: 5.12}
    newSize: {x: 1, y: 1}
    adaptiveTilingThreshold: 0.5
    drawMode: 0
    adaptiveTiling: 0
  m_AutoTiling: 0
  m_Points:
    m_Paths:
    - - {x: 0.28, y: -1.4499999}
      - {x: 0.21, y: -1.41}
      - {x: 0.21, y: -1.18}
      - {x: 0.17999999, y: -1.16}
      - {x: 0.17999999, y: -1}
      - {x: 0.29999998, y: -0.89}
      - {x: 0.37, y: -0.76}
      - {x: 0.38, y: -0.63}
      - {x: 0.35999998, y: -0.56}
      - {x: 0.26999998, y: -0.42999998}
      - {x: 0.17, y: -0.39999998}
      - {x: 0.17999999, y: -0.19}
      - {x: 0.17999999, y: 0.17}
      - {x: 0.26999998, y: 0.24}
      - {x: 0.35999998, y: 0.35}
      - {x: 0.42999998, y: 0.5}
      - {x: 0.42, y: 0.64}
      - {x: 0.35999998, y: 0.81}
      - {x: 0.47, y: 1.0699999}
      - {x: 0.55, y: 1.35}
      - {x: 0.96999997, y: 1.29}
      - {x: 1.17, y: 1.23}
      - {x: 1.66, y: 0.98999995}
      - {x: 1.65, y: 0.93}
      - {x: 1.8, y: 0.82}
      - {x: 2.02, y: 0.59999996}
      - {x: 2.11, y: 0.45}
      - {x: 2.22, y: 0.41}
      - {x: 2.25, y: 0.45999998}
      - {x: 2.28, y: 0.52}
      - {x: 2.28, y: 0.78}
      - {x: 2.24, y: 0.93}
      - {x: 2.2, y: 1.0699999}
      - {x: 2.1299999, y: 1.1899999}
      - {x: 2.03, y: 1.27}
      - {x: 1.91, y: 1.39}
      - {x: 1.8, y: 1.4599999}
      - {x: 1.42, y: 1.6899999}
      - {x: 1.01, y: 1.93}
      - {x: 0.87, y: 1.99}
      - {x: 0.61, y: 1.99}
      - {x: 0.45, y: 1.9599999}
      - {x: 0.35, y: 1.92}
      - {x: 0.32999998, y: 1.9}
      - {x: 0.26, y: 1.7099999}
      - {x: 0.22, y: 1.74}
      - {x: 0.02, y: 1.78}
      - {x: -0.16, y: 1.76}
      - {x: -0.26, y: 1.7099999}
      - {x: -0.32, y: 1.87}
      - {x: -0.35, y: 1.92}
      - {x: -0.42999998, y: 1.9599999}
      - {x: -0.57, y: 1.99}
      - {x: -0.89, y: 1.99}
      - {x: -1.4699999, y: 1.66}
      - {x: -1.88, y: 1.42}
      - {x: -2.12, y: 1.1899999}
      - {x: -2.2, y: 1.06}
      - {x: -2.25, y: 0.91999996}
      - {x: -2.28, y: 0.77}
      - {x: -2.28, y: 0.53}
      - {x: -2.25, y: 0.45999998}
      - {x: -2.21, y: 0.42999998}
      - {x: -2.1599998, y: 0.42999998}
      - {x: -2.02, y: 0.59}
      - {x: -1.8, y: 0.82}
      - {x: -1.66, y: 0.94}
      - {x: -1.64, y: 1}
      - {x: -1.37, y: 1.15}
      - {x: -1.04, y: 1.27}
      - {x: -0.76, y: 1.3199999}
      - {x: -0.53999996, y: 1.3399999}
      - {x: -0.52, y: 1.24}
      - {x: -0.44, y: 1.03}
      - {x: -0.28, y: 0.59}
      - {x: -0.21, y: 0.31}
      - {x: -0.17999999, y: 0.11}
      - {x: -0.22, y: 0.07}
      - {x: -0.26999998, y: -0.03}
      - {x: -0.26999998, y: -0.12}
      - {x: -0.19, y: -0.22}
      - {x: -0.16, y: -0.21}
      - {x: -0.16, y: -0.82}
      - {x: -0.17999999, y: -0.84999996}
      - {x: -0.22999999, y: -1}
      - {x: -0.22, y: -1.11}
      - {x: -0.21, y: -1.41}
      - {x: -0.28, y: -1.4599999}
      - {x: -0.35999998, y: -1.5899999}
      - {x: -0.34, y: -1.74}
      - {x: -0.29999998, y: -1.86}
      - {x: -0.14, y: -2}
      - {x: 0.14, y: -2}
      - {x: 0.29999998, y: -1.86}
      - {x: 0.35, y: -1.74}
      - {x: 0.35, y: -1.5999999}
    - - {x: -0.07, y: -1.74}
      - {x: -0.089999996, y: -1.7199999}
      - {x: -0.099999994, y: -1.68}
      - {x: -0.11, y: -1.67}
      - {x: -0.099999994, y: -1.66}
      - {x: -0.089999996, y: -1.62}
      - {x: 0, y: -1.53}
      - {x: 0.089999996, y: -1.62}
      - {x: 0.099999994, y: -1.66}
      - {x: 0.11, y: -1.67}
      - {x: 0.099999994, y: -1.68}
      - {x: 0.089999996, y: -1.7199999}
      - {x: 0.07, y: -1.74}
      - {x: 0.03, y: -1.75}
      - {x: 0.02, y: -1.76}
      - {x: -0.02, y: -1.76}
      - {x: -0.03, y: -1.75}
    - - {x: 0.16, y: -0.59}
      - {x: 0.17999999, y: -0.63}
      - {x: 0.17999999, y: -0.65999997}
      - {x: 0.19, y: -0.68}
      - {x: 0.17999999, y: -0.69}
      - {x: 0.17999999, y: -0.72999996}
      - {x: 0.14999999, y: -0.77}
      - {x: 0.16, y: -0.78}
      - {x: 0.17, y: -0.77}
