%YAML 1.1
%TAG !u! tag:unity3d.com,2011:
--- !u!1001 &8752129116528288148
PrefabInstance:
  m_ObjectHideFlags: 0
  serializedVersion: 2
  m_Modification:
    m_TransformParent: {fileID: 0}
    m_Modifications:
    - target: {fileID: 470151531195176395, guid: 8a80e0db349f35a499b6e771defcc1dd, type: 3}
      propertyPath: m_LocalScale.x
      value: 0.7
      objectReference: {fileID: 0}
    - target: {fileID: 470151531195176395, guid: 8a80e0db349f35a499b6e771defcc1dd, type: 3}
      propertyPath: m_LocalScale.y
      value: 0.7
      objectReference: {fileID: 0}
    - target: {fileID: 470151531195176395, guid: 8a80e0db349f35a499b6e771defcc1dd, type: 3}
      propertyPath: m_LocalScale.z
      value: 0.8545
      objectReference: {fileID: 0}
    - target: {fileID: 470151531195176395, guid: 8a80e0db349f35a499b6e771defcc1dd, type: 3}
      propertyPath: m_LocalPosition.x
      value: 0
      objectReference: {fileID: 0}
    - target: {fileID: 470151531195176395, guid: 8a80e0db349f35a499b6e771defcc1dd, type: 3}
      propertyPath: m_LocalPosition.y
      value: 1.7
      objectReference: {fileID: 0}
    - target: {fileID: 470151531195176397, guid: 8a80e0db349f35a499b6e771defcc1dd, type: 3}
      propertyPath: m_Enabled
      value: 0
      objectReference: {fileID: 0}
    - target: {fileID: 470151531195176397, guid: 8a80e0db349f35a499b6e771defcc1dd, type: 3}
      propertyPath: m_SpriteTilingProperty.oldSize.x
      value: 1.28
      objectReference: {fileID: 0}
    - target: {fileID: 470151531195176398, guid: 8a80e0db349f35a499b6e771defcc1dd, type: 3}
      propertyPath: m_Sprite
      value: 
      objectReference: {fileID: 21300000, guid: e36c2ba4fb6ab614eaf6c950816fc0ad, type: 3}
    - target: {fileID: 470151531195176399, guid: 8a80e0db349f35a499b6e771defcc1dd, type: 3}
      propertyPath: m_Size.x
      value: 0.34
      objectReference: {fileID: 0}
    - target: {fileID: 470151531195176399, guid: 8a80e0db349f35a499b6e771defcc1dd, type: 3}
      propertyPath: m_Size.y
      value: 3.688929
      objectReference: {fileID: 0}
    - target: {fileID: 470151531195176399, guid: 8a80e0db349f35a499b6e771defcc1dd, type: 3}
      propertyPath: m_Enabled
      value: 1
      objectReference: {fileID: 0}
    - target: {fileID: 470151531195176399, guid: 8a80e0db349f35a499b6e771defcc1dd, type: 3}
      propertyPath: m_Offset.y
      value: -0.71553546
      objectReference: {fileID: 0}
    - target: {fileID: 470151531195176399, guid: 8a80e0db349f35a499b6e771defcc1dd, type: 3}
      propertyPath: m_IsTrigger
      value: 1
      objectReference: {fileID: 0}
    - target: {fileID: 470151531195176399, guid: 8a80e0db349f35a499b6e771defcc1dd, type: 3}
      propertyPath: m_SpriteTilingProperty.newSize.x
      value: 1
      objectReference: {fileID: 0}
    - target: {fileID: 470151531195176399, guid: 8a80e0db349f35a499b6e771defcc1dd, type: 3}
      propertyPath: m_SpriteTilingProperty.newSize.y
      value: 1
      objectReference: {fileID: 0}
    - target: {fileID: 470151531195176399, guid: 8a80e0db349f35a499b6e771defcc1dd, type: 3}
      propertyPath: m_SpriteTilingProperty.oldSize.x
      value: 2.56
      objectReference: {fileID: 0}
    - target: {fileID: 470151531195176399, guid: 8a80e0db349f35a499b6e771defcc1dd, type: 3}
      propertyPath: m_SpriteTilingProperty.oldSize.y
      value: 5.12
      objectReference: {fileID: 0}
    - target: {fileID: 470151532077630696, guid: 8a80e0db349f35a499b6e771defcc1dd, type: 3}
      propertyPath: m_RootOrder
      value: 0
      objectReference: {fileID: 0}
    - target: {fileID: 470151532077630696, guid: 8a80e0db349f35a499b6e771defcc1dd, type: 3}
      propertyPath: m_LocalPosition.x
      value: 0
      objectReference: {fileID: 0}
    - target: {fileID: 470151532077630696, guid: 8a80e0db349f35a499b6e771defcc1dd, type: 3}
      propertyPath: m_LocalPosition.y
      value: 0
      objectReference: {fileID: 0}
    - target: {fileID: 470151532077630696, guid: 8a80e0db349f35a499b6e771defcc1dd, type: 3}
      propertyPath: m_LocalPosition.z
      value: 0
      objectReference: {fileID: 0}
    - target: {fileID: 470151532077630696, guid: 8a80e0db349f35a499b6e771defcc1dd, type: 3}
      propertyPath: m_LocalRotation.w
      value: 1
      objectReference: {fileID: 0}
    - target: {fileID: 470151532077630696, guid: 8a80e0db349f35a499b6e771defcc1dd, type: 3}
      propertyPath: m_LocalRotation.z
      value: 0
      objectReference: {fileID: 0}
    - target: {fileID: 470151532077630696, guid: 8a80e0db349f35a499b6e771defcc1dd, type: 3}
      propertyPath: m_LocalEulerAnglesHint.x
      value: 0
      objectReference: {fileID: 0}
    - target: {fileID: 470151532077630696, guid: 8a80e0db349f35a499b6e771defcc1dd, type: 3}
      propertyPath: m_LocalEulerAnglesHint.y
      value: 0
      objectReference: {fileID: 0}
    - target: {fileID: 470151532077630696, guid: 8a80e0db349f35a499b6e771defcc1dd, type: 3}
      propertyPath: m_LocalEulerAnglesHint.z
      value: 0
      objectReference: {fileID: 0}
    - target: {fileID: 470151532077630697, guid: 8a80e0db349f35a499b6e771defcc1dd, type: 3}
      propertyPath: m_Name
      value: 32 Rare Bat UI
      objectReference: {fileID: 0}
    - target: {fileID: 470151532077630699, guid: 8a80e0db349f35a499b6e771defcc1dd, type: 3}
      propertyPath: id
      value: 32
      objectReference: {fileID: 0}
    - target: {fileID: 470151532077630699, guid: 8a80e0db349f35a499b6e771defcc1dd, type: 3}
      propertyPath: weight
      value: 3
      objectReference: {fileID: 0}
    - target: {fileID: 470151532077630701, guid: 8a80e0db349f35a499b6e771defcc1dd, type: 3}
      propertyPath: m_Size.y
      value: 4.644978
      objectReference: {fileID: 0}
    - target: {fileID: 470151532077630701, guid: 8a80e0db349f35a499b6e771defcc1dd, type: 3}
      propertyPath: m_Offset.y
      value: 2.0655787
      objectReference: {fileID: 0}
    - target: {fileID: 470151532186520518, guid: 8a80e0db349f35a499b6e771defcc1dd, type: 3}
      propertyPath: m_IsActive
      value: 0
      objectReference: {fileID: 0}
    - target: {fileID: 470151532186520569, guid: 8a80e0db349f35a499b6e771defcc1dd, type: 3}
      propertyPath: m_LocalPosition.x
      value: -0
      objectReference: {fileID: 0}
    - target: {fileID: 470151532186520569, guid: 8a80e0db349f35a499b6e771defcc1dd, type: 3}
      propertyPath: m_LocalPosition.y
      value: 4.08
      objectReference: {fileID: 0}
    - target: {fileID: 6353207758669845592, guid: 8a80e0db349f35a499b6e771defcc1dd, type: 3}
      propertyPath: m_LocalPosition.x
      value: -0.01
      objectReference: {fileID: 0}
    - target: {fileID: 6353207758669845592, guid: 8a80e0db349f35a499b6e771defcc1dd, type: 3}
      propertyPath: m_LocalPosition.y
      value: 3.37
      objectReference: {fileID: 0}
    m_RemovedComponents:
    - {fileID: 470151531195176397, guid: 8a80e0db349f35a499b6e771defcc1dd, type: 3}
  m_SourcePrefab: {fileID: 100100000, guid: 8a80e0db349f35a499b6e771defcc1dd, type: 3}
--- !u!1 &9219888079986963548 stripped
GameObject:
  m_CorrespondingSourceObject: {fileID: 470151531195176392, guid: 8a80e0db349f35a499b6e771defcc1dd, type: 3}
  m_PrefabInstance: {fileID: 8752129116528288148}
  m_PrefabAsset: {fileID: 0}
--- !u!61 &2679749106680075348
BoxCollider2D:
  m_ObjectHideFlags: 0
  m_CorrespondingSourceObject: {fileID: 0}
  m_PrefabInstance: {fileID: 0}
  m_PrefabAsset: {fileID: 0}
  m_GameObject: {fileID: 9219888079986963548}
  m_Enabled: 1
  m_Density: 1
  m_Material: {fileID: 0}
  m_IsTrigger: 1
  m_UsedByEffector: 0
  m_UsedByComposite: 0
  m_Offset: {x: 0, y: 1.8413103}
  m_SpriteTilingProperty:
    border: {x: 0, y: 0, z: 0, w: 0}
    pivot: {x: 0.5, y: 0.5}
    oldSize: {x: 2.56, y: 5.12}
    newSize: {x: 1, y: 1}
    adaptiveTilingThreshold: 0.5
    drawMode: 0
    adaptiveTiling: 0
  m_AutoTiling: 0
  serializedVersion: 2
  m_Size: {x: 0.8913968, y: 1.4166389}
  m_EdgeRadius: 0
