%YAML 1.1
%TAG !u! tag:unity3d.com,2011:
--- !u!1001 &8752129116528288148
PrefabInstance:
  m_ObjectHideFlags: 0
  serializedVersion: 2
  m_Modification:
    m_TransformParent: {fileID: 0}
    m_Modifications:
    - target: {fileID: 470151531195176395, guid: 8a80e0db349f35a499b6e771defcc1dd, type: 3}
      propertyPath: m_LocalScale.x
      value: 0.5
      objectReference: {fileID: 0}
    - target: {fileID: 470151531195176395, guid: 8a80e0db349f35a499b6e771defcc1dd, type: 3}
      propertyPath: m_LocalScale.y
      value: 0.55
      objectReference: {fileID: 0}
    - target: {fileID: 470151531195176395, guid: 8a80e0db349f35a499b6e771defcc1dd, type: 3}
      propertyPath: m_LocalScale.z
      value: 0.6412
      objectReference: {fileID: 0}
    - target: {fileID: 470151531195176395, guid: 8a80e0db349f35a499b6e771defcc1dd, type: 3}
      propertyPath: m_LocalPosition.x
      value: 0
      objectReference: {fileID: 0}
    - target: {fileID: 470151531195176395, guid: 8a80e0db349f35a499b6e771defcc1dd, type: 3}
      propertyPath: m_LocalPosition.y
      value: 0.2
      objectReference: {fileID: 0}
    - target: {fileID: 470151531195176395, guid: 8a80e0db349f35a499b6e771defcc1dd, type: 3}
      propertyPath: m_LocalRotation.w
      value: 0.7492113
      objectReference: {fileID: 0}
    - target: {fileID: 470151531195176395, guid: 8a80e0db349f35a499b6e771defcc1dd, type: 3}
      propertyPath: m_LocalRotation.z
      value: 0.6623311
      objectReference: {fileID: 0}
    - target: {fileID: 470151531195176395, guid: 8a80e0db349f35a499b6e771defcc1dd, type: 3}
      propertyPath: m_LocalEulerAnglesHint.z
      value: 82.956
      objectReference: {fileID: 0}
    - target: {fileID: 470151531195176397, guid: 8a80e0db349f35a499b6e771defcc1dd, type: 3}
      propertyPath: m_Enabled
      value: 0
      objectReference: {fileID: 0}
    - target: {fileID: 470151531195176397, guid: 8a80e0db349f35a499b6e771defcc1dd, type: 3}
      propertyPath: m_SpriteTilingProperty.oldSize.x
      value: 1.28
      objectReference: {fileID: 0}
    - target: {fileID: 470151531195176398, guid: 8a80e0db349f35a499b6e771defcc1dd, type: 3}
      propertyPath: m_Sprite
      value: 
      objectReference: {fileID: 21300000, guid: 1baa4b1ca1003ad4098ba7d468c97a54, type: 3}
    - target: {fileID: 470151531195176399, guid: 8a80e0db349f35a499b6e771defcc1dd, type: 3}
      propertyPath: m_Size.x
      value: 3.3602262
      objectReference: {fileID: 0}
    - target: {fileID: 470151531195176399, guid: 8a80e0db349f35a499b6e771defcc1dd, type: 3}
      propertyPath: m_Size.y
      value: 4.5870104
      objectReference: {fileID: 0}
    - target: {fileID: 470151531195176399, guid: 8a80e0db349f35a499b6e771defcc1dd, type: 3}
      propertyPath: m_Enabled
      value: 1
      objectReference: {fileID: 0}
    - target: {fileID: 470151531195176399, guid: 8a80e0db349f35a499b6e771defcc1dd, type: 3}
      propertyPath: m_IsTrigger
      value: 1
      objectReference: {fileID: 0}
    - target: {fileID: 470151531195176399, guid: 8a80e0db349f35a499b6e771defcc1dd, type: 3}
      propertyPath: m_SpriteTilingProperty.newSize.x
      value: 1
      objectReference: {fileID: 0}
    - target: {fileID: 470151531195176399, guid: 8a80e0db349f35a499b6e771defcc1dd, type: 3}
      propertyPath: m_SpriteTilingProperty.newSize.y
      value: 1
      objectReference: {fileID: 0}
    - target: {fileID: 470151531195176399, guid: 8a80e0db349f35a499b6e771defcc1dd, type: 3}
      propertyPath: m_SpriteTilingProperty.oldSize.x
      value: 5.12
      objectReference: {fileID: 0}
    - target: {fileID: 470151531195176399, guid: 8a80e0db349f35a499b6e771defcc1dd, type: 3}
      propertyPath: m_SpriteTilingProperty.oldSize.y
      value: 5.12
      objectReference: {fileID: 0}
    - target: {fileID: 470151532077630696, guid: 8a80e0db349f35a499b6e771defcc1dd, type: 3}
      propertyPath: m_RootOrder
      value: 0
      objectReference: {fileID: 0}
    - target: {fileID: 470151532077630696, guid: 8a80e0db349f35a499b6e771defcc1dd, type: 3}
      propertyPath: m_LocalPosition.x
      value: 0
      objectReference: {fileID: 0}
    - target: {fileID: 470151532077630696, guid: 8a80e0db349f35a499b6e771defcc1dd, type: 3}
      propertyPath: m_LocalPosition.y
      value: 0
      objectReference: {fileID: 0}
    - target: {fileID: 470151532077630696, guid: 8a80e0db349f35a499b6e771defcc1dd, type: 3}
      propertyPath: m_LocalPosition.z
      value: 0
      objectReference: {fileID: 0}
    - target: {fileID: 470151532077630696, guid: 8a80e0db349f35a499b6e771defcc1dd, type: 3}
      propertyPath: m_LocalRotation.w
      value: 1
      objectReference: {fileID: 0}
    - target: {fileID: 470151532077630696, guid: 8a80e0db349f35a499b6e771defcc1dd, type: 3}
      propertyPath: m_LocalRotation.z
      value: 0
      objectReference: {fileID: 0}
    - target: {fileID: 470151532077630696, guid: 8a80e0db349f35a499b6e771defcc1dd, type: 3}
      propertyPath: m_LocalEulerAnglesHint.x
      value: 0
      objectReference: {fileID: 0}
    - target: {fileID: 470151532077630696, guid: 8a80e0db349f35a499b6e771defcc1dd, type: 3}
      propertyPath: m_LocalEulerAnglesHint.y
      value: 0
      objectReference: {fileID: 0}
    - target: {fileID: 470151532077630696, guid: 8a80e0db349f35a499b6e771defcc1dd, type: 3}
      propertyPath: m_LocalEulerAnglesHint.z
      value: 0
      objectReference: {fileID: 0}
    - target: {fileID: 470151532077630697, guid: 8a80e0db349f35a499b6e771defcc1dd, type: 3}
      propertyPath: m_Name
      value: 38 Rare Shield 1 UI
      objectReference: {fileID: 0}
    - target: {fileID: 470151532077630699, guid: 8a80e0db349f35a499b6e771defcc1dd, type: 3}
      propertyPath: id
      value: 38
      objectReference: {fileID: 0}
    - target: {fileID: 470151532077630699, guid: 8a80e0db349f35a499b6e771defcc1dd, type: 3}
      propertyPath: weight
      value: 1
      objectReference: {fileID: 0}
    - target: {fileID: 470151532077630701, guid: 8a80e0db349f35a499b6e771defcc1dd, type: 3}
      propertyPath: m_Size.x
      value: 1.9657722
      objectReference: {fileID: 0}
    - target: {fileID: 470151532077630701, guid: 8a80e0db349f35a499b6e771defcc1dd, type: 3}
      propertyPath: m_Size.y
      value: 1.4255736
      objectReference: {fileID: 0}
    - target: {fileID: 470151532077630701, guid: 8a80e0db349f35a499b6e771defcc1dd, type: 3}
      propertyPath: m_Offset.x
      value: -0.06607902
      objectReference: {fileID: 0}
    - target: {fileID: 470151532077630701, guid: 8a80e0db349f35a499b6e771defcc1dd, type: 3}
      propertyPath: m_Offset.y
      value: 0.23222397
      objectReference: {fileID: 0}
    - target: {fileID: 470151532186520518, guid: 8a80e0db349f35a499b6e771defcc1dd, type: 3}
      propertyPath: m_IsActive
      value: 0
      objectReference: {fileID: 0}
    - target: {fileID: 470151532186520569, guid: 8a80e0db349f35a499b6e771defcc1dd, type: 3}
      propertyPath: m_LocalPosition.x
      value: -0
      objectReference: {fileID: 0}
    - target: {fileID: 470151532186520569, guid: 8a80e0db349f35a499b6e771defcc1dd, type: 3}
      propertyPath: m_LocalPosition.y
      value: 1.75
      objectReference: {fileID: 0}
    - target: {fileID: 6353207758669845592, guid: 8a80e0db349f35a499b6e771defcc1dd, type: 3}
      propertyPath: m_LocalPosition.x
      value: -0.01
      objectReference: {fileID: 0}
    - target: {fileID: 6353207758669845592, guid: 8a80e0db349f35a499b6e771defcc1dd, type: 3}
      propertyPath: m_LocalPosition.y
      value: 1.19
      objectReference: {fileID: 0}
    m_RemovedComponents:
    - {fileID: 470151531195176397, guid: 8a80e0db349f35a499b6e771defcc1dd, type: 3}
  m_SourcePrefab: {fileID: 100100000, guid: 8a80e0db349f35a499b6e771defcc1dd, type: 3}
