%YAML 1.1
%TAG !u! tag:unity3d.com,2011:
--- !u!1001 &4372530185363788090
PrefabInstance:
  m_ObjectHideFlags: 0
  serializedVersion: 2
  m_Modification:
    m_TransformParent: {fileID: 0}
    m_Modifications:
    - target: {fileID: 6468109332570585256, guid: 15db4fa0ba448f0439ad5aa8f1875520, type: 3}
      propertyPath: m_Enabled
      value: 0
      objectReference: {fileID: 0}
    - target: {fileID: 6468109332570585256, guid: 15db4fa0ba448f0439ad5aa8f1875520, type: 3}
      propertyPath: m_SpriteTilingProperty.oldSize.x
      value: 2.56
      objectReference: {fileID: 0}
    - target: {fileID: 6468109332570585256, guid: 15db4fa0ba448f0439ad5aa8f1875520, type: 3}
      propertyPath: m_SpriteTilingProperty.oldSize.y
      value: 5.12
      objectReference: {fileID: 0}
    - target: {fileID: 6468109332570585257, guid: 15db4fa0ba448f0439ad5aa8f1875520, type: 3}
      propertyPath: m_LocalScale.x
      value: 0.91431504
      objectReference: {fileID: 0}
    - target: {fileID: 6468109332570585257, guid: 15db4fa0ba448f0439ad5aa8f1875520, type: 3}
      propertyPath: m_LocalScale.y
      value: 0.91431504
      objectReference: {fileID: 0}
    - target: {fileID: 6468109332570585257, guid: 15db4fa0ba448f0439ad5aa8f1875520, type: 3}
      propertyPath: m_LocalScale.z
      value: 0.91431504
      objectReference: {fileID: 0}
    - target: {fileID: 6468109332570585257, guid: 15db4fa0ba448f0439ad5aa8f1875520, type: 3}
      propertyPath: m_LocalPosition.x
      value: -0.02
      objectReference: {fileID: 0}
    - target: {fileID: 6468109332570585257, guid: 15db4fa0ba448f0439ad5aa8f1875520, type: 3}
      propertyPath: m_LocalPosition.y
      value: 2.21
      objectReference: {fileID: 0}
    - target: {fileID: 6468109332570585257, guid: 15db4fa0ba448f0439ad5aa8f1875520, type: 3}
      propertyPath: m_LocalRotation.z
      value: -0
      objectReference: {fileID: 0}
    - target: {fileID: 6468109332570585257, guid: 15db4fa0ba448f0439ad5aa8f1875520, type: 3}
      propertyPath: m_LocalEulerAnglesHint.z
      value: -180
      objectReference: {fileID: 0}
    - target: {fileID: 6468109332570585258, guid: 15db4fa0ba448f0439ad5aa8f1875520, type: 3}
      propertyPath: m_Layer
      value: 9
      objectReference: {fileID: 0}
    - target: {fileID: 6468109332570585263, guid: 15db4fa0ba448f0439ad5aa8f1875520, type: 3}
      propertyPath: m_Sprite
      value: 
      objectReference: {fileID: 21300000, guid: 27a39a0887964b2468f29f6dee3dbed3, type: 3}
    - target: {fileID: 6468109333617044118, guid: 15db4fa0ba448f0439ad5aa8f1875520, type: 3}
      propertyPath: m_RootOrder
      value: 0
      objectReference: {fileID: 0}
    - target: {fileID: 6468109333617044118, guid: 15db4fa0ba448f0439ad5aa8f1875520, type: 3}
      propertyPath: m_LocalScale.x
      value: 0.8
      objectReference: {fileID: 0}
    - target: {fileID: 6468109333617044118, guid: 15db4fa0ba448f0439ad5aa8f1875520, type: 3}
      propertyPath: m_LocalScale.y
      value: 0.8
      objectReference: {fileID: 0}
    - target: {fileID: 6468109333617044118, guid: 15db4fa0ba448f0439ad5aa8f1875520, type: 3}
      propertyPath: m_LocalScale.z
      value: 0.8
      objectReference: {fileID: 0}
    - target: {fileID: 6468109333617044118, guid: 15db4fa0ba448f0439ad5aa8f1875520, type: 3}
      propertyPath: m_LocalPosition.x
      value: 0
      objectReference: {fileID: 0}
    - target: {fileID: 6468109333617044118, guid: 15db4fa0ba448f0439ad5aa8f1875520, type: 3}
      propertyPath: m_LocalPosition.y
      value: 0
      objectReference: {fileID: 0}
    - target: {fileID: 6468109333617044118, guid: 15db4fa0ba448f0439ad5aa8f1875520, type: 3}
      propertyPath: m_LocalPosition.z
      value: 0
      objectReference: {fileID: 0}
    - target: {fileID: 6468109333617044118, guid: 15db4fa0ba448f0439ad5aa8f1875520, type: 3}
      propertyPath: m_LocalRotation.w
      value: 1
      objectReference: {fileID: 0}
    - target: {fileID: 6468109333617044118, guid: 15db4fa0ba448f0439ad5aa8f1875520, type: 3}
      propertyPath: m_LocalRotation.x
      value: -0
      objectReference: {fileID: 0}
    - target: {fileID: 6468109333617044118, guid: 15db4fa0ba448f0439ad5aa8f1875520, type: 3}
      propertyPath: m_LocalRotation.y
      value: -0
      objectReference: {fileID: 0}
    - target: {fileID: 6468109333617044118, guid: 15db4fa0ba448f0439ad5aa8f1875520, type: 3}
      propertyPath: m_LocalRotation.z
      value: -0.00000014901158
      objectReference: {fileID: 0}
    - target: {fileID: 6468109333617044118, guid: 15db4fa0ba448f0439ad5aa8f1875520, type: 3}
      propertyPath: m_LocalEulerAnglesHint.x
      value: 0
      objectReference: {fileID: 0}
    - target: {fileID: 6468109333617044118, guid: 15db4fa0ba448f0439ad5aa8f1875520, type: 3}
      propertyPath: m_LocalEulerAnglesHint.y
      value: 0
      objectReference: {fileID: 0}
    - target: {fileID: 6468109333617044118, guid: 15db4fa0ba448f0439ad5aa8f1875520, type: 3}
      propertyPath: m_LocalEulerAnglesHint.z
      value: 0
      objectReference: {fileID: 0}
    - target: {fileID: 6468109333617044119, guid: 15db4fa0ba448f0439ad5aa8f1875520, type: 3}
      propertyPath: m_Name
      value: 16 Lightsaber
      objectReference: {fileID: 0}
    - target: {fileID: 6468109333617044119, guid: 15db4fa0ba448f0439ad5aa8f1875520, type: 3}
      propertyPath: m_Layer
      value: 9
      objectReference: {fileID: 0}
    m_RemovedComponents: []
  m_SourcePrefab: {fileID: 100100000, guid: 15db4fa0ba448f0439ad5aa8f1875520, type: 3}
--- !u!1 &7308513310893812112 stripped
GameObject:
  m_CorrespondingSourceObject: {fileID: 6468109332570585258, guid: 15db4fa0ba448f0439ad5aa8f1875520, type: 3}
  m_PrefabInstance: {fileID: 4372530185363788090}
  m_PrefabAsset: {fileID: 0}
--- !u!60 &7429141145310587311
PolygonCollider2D:
  m_ObjectHideFlags: 0
  m_CorrespondingSourceObject: {fileID: 0}
  m_PrefabInstance: {fileID: 0}
  m_PrefabAsset: {fileID: 0}
  m_GameObject: {fileID: 7308513310893812112}
  m_Enabled: 0
  m_Density: 1
  m_Material: {fileID: 0}
  m_IsTrigger: 0
  m_UsedByEffector: 0
  m_UsedByComposite: 0
  m_Offset: {x: 0, y: 0}
  m_SpriteTilingProperty:
    border: {x: 0, y: 0, z: 0, w: 0}
    pivot: {x: 0.5, y: 0.5}
    oldSize: {x: 2.56, y: 5.12}
    newSize: {x: 2.56, y: 2.56}
    adaptiveTilingThreshold: 0.5
    drawMode: 0
    adaptiveTiling: 0
  m_AutoTiling: 0
  m_Points:
    m_Paths:
    - - {x: 0.89, y: -1.8399999}
      - {x: 0.89, y: -1.63}
      - {x: 0.19999999, y: -1.49}
      - {x: 0.14999999, y: 2.1699998}
      - {x: 0.099999994, y: 2.33}
      - {x: -0.049999997, y: 2.33}
      - {x: -0.14, y: 2.25}
      - {x: -0.14, y: -1.4699999}
      - {x: -0.89, y: -1.65}
      - {x: -0.89, y: -1.91}
      - {x: -0.16, y: -1.9699999}
      - {x: -0.11, y: -2.47}
      - {x: -0.08, y: -2.56}
      - {x: 0.089999996, y: -2.56}
      - {x: 0.12, y: -2.52}
      - {x: 0.089999996, y: -1.89}
      - {x: 0.76, y: -1.92}
--- !u!61 &6547529346604426668
BoxCollider2D:
  m_ObjectHideFlags: 0
  m_CorrespondingSourceObject: {fileID: 0}
  m_PrefabInstance: {fileID: 0}
  m_PrefabAsset: {fileID: 0}
  m_GameObject: {fileID: 7308513310893812112}
  m_Enabled: 1
  m_Density: 1
  m_Material: {fileID: 0}
  m_IsTrigger: 0
  m_UsedByEffector: 0
  m_UsedByComposite: 0
  m_Offset: {x: 0, y: 0}
  m_SpriteTilingProperty:
    border: {x: 0, y: 0, z: 0, w: 0}
    pivot: {x: 0.5, y: 0.5}
    oldSize: {x: 2.56, y: 5.12}
    newSize: {x: 2.56, y: 2.56}
    adaptiveTilingThreshold: 0.5
    drawMode: 0
    adaptiveTiling: 0
  m_AutoTiling: 0
  serializedVersion: 2
  m_Size: {x: 0.28, y: 5.12}
  m_EdgeRadius: 0
--- !u!61 &7604998892566337022
BoxCollider2D:
  m_ObjectHideFlags: 0
  m_CorrespondingSourceObject: {fileID: 0}
  m_PrefabInstance: {fileID: 0}
  m_PrefabAsset: {fileID: 0}
  m_GameObject: {fileID: 7308513310893812112}
  m_Enabled: 1
  m_Density: 1
  m_Material: {fileID: 0}
  m_IsTrigger: 0
  m_UsedByEffector: 0
  m_UsedByComposite: 0
  m_Offset: {x: -0.02922365, y: -1.7436758}
  m_SpriteTilingProperty:
    border: {x: 0, y: 0, z: 0, w: 0}
    pivot: {x: 0.5, y: 0.5}
    oldSize: {x: 2.56, y: 5.12}
    newSize: {x: 2.56, y: 2.56}
    adaptiveTilingThreshold: 0.5
    drawMode: 0
    adaptiveTiling: 0
  m_AutoTiling: 0
  serializedVersion: 2
  m_Size: {x: 1.8580754, y: 0.54163384}
  m_EdgeRadius: 0
