%YAML 1.1
%TAG !u! tag:unity3d.com,2011:
--- !u!1001 &4372530185363788090
PrefabInstance:
  m_ObjectHideFlags: 0
  serializedVersion: 2
  m_Modification:
    m_TransformParent: {fileID: 0}
    m_Modifications:
    - target: {fileID: 6468109332570585256, guid: 15db4fa0ba448f0439ad5aa8f1875520, type: 3}
      propertyPath: m_Enabled
      value: 0
      objectReference: {fileID: 0}
    - target: {fileID: 6468109332570585256, guid: 15db4fa0ba448f0439ad5aa8f1875520, type: 3}
      propertyPath: m_SpriteTilingProperty.oldSize.x
      value: 2.56
      objectReference: {fileID: 0}
    - target: {fileID: 6468109332570585256, guid: 15db4fa0ba448f0439ad5aa8f1875520, type: 3}
      propertyPath: m_SpriteTilingProperty.oldSize.y
      value: 10.24
      objectReference: {fileID: 0}
    - target: {fileID: 6468109332570585257, guid: 15db4fa0ba448f0439ad5aa8f1875520, type: 3}
      propertyPath: m_LocalScale.x
      value: 0.3
      objectReference: {fileID: 0}
    - target: {fileID: 6468109332570585257, guid: 15db4fa0ba448f0439ad5aa8f1875520, type: 3}
      propertyPath: m_LocalScale.y
      value: 0.3
      objectReference: {fileID: 0}
    - target: {fileID: 6468109332570585257, guid: 15db4fa0ba448f0439ad5aa8f1875520, type: 3}
      propertyPath: m_LocalScale.z
      value: 0.3
      objectReference: {fileID: 0}
    - target: {fileID: 6468109332570585257, guid: 15db4fa0ba448f0439ad5aa8f1875520, type: 3}
      propertyPath: m_LocalPosition.x
      value: -0
      objectReference: {fileID: 0}
    - target: {fileID: 6468109332570585257, guid: 15db4fa0ba448f0439ad5aa8f1875520, type: 3}
      propertyPath: m_LocalPosition.y
      value: 1.4
      objectReference: {fileID: 0}
    - target: {fileID: 6468109332570585257, guid: 15db4fa0ba448f0439ad5aa8f1875520, type: 3}
      propertyPath: m_LocalRotation.z
      value: -0
      objectReference: {fileID: 0}
    - target: {fileID: 6468109332570585257, guid: 15db4fa0ba448f0439ad5aa8f1875520, type: 3}
      propertyPath: m_LocalEulerAnglesHint.z
      value: -180
      objectReference: {fileID: 0}
    - target: {fileID: 6468109332570585258, guid: 15db4fa0ba448f0439ad5aa8f1875520, type: 3}
      propertyPath: m_Layer
      value: 9
      objectReference: {fileID: 0}
    - target: {fileID: 6468109332570585263, guid: 15db4fa0ba448f0439ad5aa8f1875520, type: 3}
      propertyPath: m_Sprite
      value: 
      objectReference: {fileID: 21300000, guid: 4b4609511981d844f963ecc68046ebc6, type: 3}
    - target: {fileID: 6468109333617044118, guid: 15db4fa0ba448f0439ad5aa8f1875520, type: 3}
      propertyPath: m_RootOrder
      value: 0
      objectReference: {fileID: 0}
    - target: {fileID: 6468109333617044118, guid: 15db4fa0ba448f0439ad5aa8f1875520, type: 3}
      propertyPath: m_LocalScale.x
      value: 0.8
      objectReference: {fileID: 0}
    - target: {fileID: 6468109333617044118, guid: 15db4fa0ba448f0439ad5aa8f1875520, type: 3}
      propertyPath: m_LocalScale.y
      value: 0.8
      objectReference: {fileID: 0}
    - target: {fileID: 6468109333617044118, guid: 15db4fa0ba448f0439ad5aa8f1875520, type: 3}
      propertyPath: m_LocalScale.z
      value: 0.8
      objectReference: {fileID: 0}
    - target: {fileID: 6468109333617044118, guid: 15db4fa0ba448f0439ad5aa8f1875520, type: 3}
      propertyPath: m_LocalPosition.x
      value: 0
      objectReference: {fileID: 0}
    - target: {fileID: 6468109333617044118, guid: 15db4fa0ba448f0439ad5aa8f1875520, type: 3}
      propertyPath: m_LocalPosition.y
      value: 0
      objectReference: {fileID: 0}
    - target: {fileID: 6468109333617044118, guid: 15db4fa0ba448f0439ad5aa8f1875520, type: 3}
      propertyPath: m_LocalPosition.z
      value: 0
      objectReference: {fileID: 0}
    - target: {fileID: 6468109333617044118, guid: 15db4fa0ba448f0439ad5aa8f1875520, type: 3}
      propertyPath: m_LocalRotation.w
      value: 1
      objectReference: {fileID: 0}
    - target: {fileID: 6468109333617044118, guid: 15db4fa0ba448f0439ad5aa8f1875520, type: 3}
      propertyPath: m_LocalRotation.x
      value: -0
      objectReference: {fileID: 0}
    - target: {fileID: 6468109333617044118, guid: 15db4fa0ba448f0439ad5aa8f1875520, type: 3}
      propertyPath: m_LocalRotation.y
      value: -0
      objectReference: {fileID: 0}
    - target: {fileID: 6468109333617044118, guid: 15db4fa0ba448f0439ad5aa8f1875520, type: 3}
      propertyPath: m_LocalRotation.z
      value: -0.00000014901158
      objectReference: {fileID: 0}
    - target: {fileID: 6468109333617044118, guid: 15db4fa0ba448f0439ad5aa8f1875520, type: 3}
      propertyPath: m_LocalEulerAnglesHint.x
      value: 0
      objectReference: {fileID: 0}
    - target: {fileID: 6468109333617044118, guid: 15db4fa0ba448f0439ad5aa8f1875520, type: 3}
      propertyPath: m_LocalEulerAnglesHint.y
      value: 0
      objectReference: {fileID: 0}
    - target: {fileID: 6468109333617044118, guid: 15db4fa0ba448f0439ad5aa8f1875520, type: 3}
      propertyPath: m_LocalEulerAnglesHint.z
      value: 0
      objectReference: {fileID: 0}
    - target: {fileID: 6468109333617044119, guid: 15db4fa0ba448f0439ad5aa8f1875520, type: 3}
      propertyPath: m_Name
      value: 6 Shabby Sword
      objectReference: {fileID: 0}
    - target: {fileID: 6468109333617044119, guid: 15db4fa0ba448f0439ad5aa8f1875520, type: 3}
      propertyPath: m_Layer
      value: 9
      objectReference: {fileID: 0}
    m_RemovedComponents: []
  m_SourcePrefab: {fileID: 100100000, guid: 15db4fa0ba448f0439ad5aa8f1875520, type: 3}
--- !u!1 &7308513310893812112 stripped
GameObject:
  m_CorrespondingSourceObject: {fileID: 6468109332570585258, guid: 15db4fa0ba448f0439ad5aa8f1875520, type: 3}
  m_PrefabInstance: {fileID: 4372530185363788090}
  m_PrefabAsset: {fileID: 0}
--- !u!60 &2892767042778135706
PolygonCollider2D:
  m_ObjectHideFlags: 0
  m_CorrespondingSourceObject: {fileID: 0}
  m_PrefabInstance: {fileID: 0}
  m_PrefabAsset: {fileID: 0}
  m_GameObject: {fileID: 7308513310893812112}
  m_Enabled: 0
  m_Density: 1
  m_Material: {fileID: 0}
  m_IsTrigger: 0
  m_UsedByEffector: 0
  m_UsedByComposite: 0
  m_Offset: {x: 0, y: 0}
  m_SpriteTilingProperty:
    border: {x: 0, y: 0, z: 0, w: 0}
    pivot: {x: 0.5, y: 0.5}
    oldSize: {x: 2.56, y: 10.24}
    newSize: {x: 2.56, y: 2.56}
    adaptiveTilingThreshold: 0.5
    drawMode: 0
    adaptiveTiling: 0
  m_AutoTiling: 0
  m_Points:
    m_Paths:
    - - {x: 0.31, y: -4.36}
      - {x: 0.34, y: -4.14}
      - {x: 0.32, y: -3.56}
      - {x: 0.26, y: -3.11}
      - {x: 0.25, y: -2.9199998}
      - {x: 0.39999998, y: -2.81}
      - {x: 0.5, y: -2.75}
      - {x: 0.57, y: -2.7}
      - {x: 0.57, y: -2.06}
      - {x: 0.55, y: -2.02}
      - {x: 0.45, y: -1.9699999}
      - {x: 0.44, y: 0.65}
      - {x: 0.34, y: 1.22}
      - {x: 0.35, y: 1.4}
      - {x: 0.32, y: 1.56}
      - {x: 0.44, y: 1.7199999}
      - {x: 0.44, y: 3.9599998}
      - {x: 0.42999998, y: 4.06}
      - {x: 0.35, y: 4.45}
      - {x: 0.26, y: 4.7}
      - {x: 0.19, y: 4.88}
      - {x: 0.02, y: 5.12}
      - {x: -0.02, y: 5.12}
      - {x: -0.08, y: 5.04}
      - {x: -0.07, y: 4.99}
      - {x: -0.06, y: 4.81}
      - {x: -0.13, y: 4.69}
      - {x: -0.16, y: 4.41}
      - {x: -0.19, y: 4.3399997}
      - {x: -0.31, y: 4.27}
      - {x: -0.42, y: 4.11}
      - {x: -0.44, y: 3.9599998}
      - {x: -0.44, y: -1.9599999}
      - {x: -0.53999996, y: -2.03}
      - {x: -0.56, y: -2.05}
      - {x: -0.57, y: -2.08}
      - {x: -0.57, y: -2.71}
      - {x: -0.34, y: -2.86}
      - {x: -0.26, y: -3.11}
      - {x: -0.31, y: -3.4499998}
      - {x: -0.32999998, y: -3.7099998}
      - {x: -0.32999998, y: -4.14}
      - {x: -0.31, y: -4.36}
      - {x: -0.26999998, y: -4.66}
      - {x: -0.26999998, y: -4.96}
      - {x: -0.25, y: -5.02}
      - {x: -0.12, y: -5.12}
      - {x: 0.11, y: -5.12}
      - {x: 0.26, y: -5.0299997}
      - {x: 0.26999998, y: -4.96}
      - {x: 0.26999998, y: -4.81}
--- !u!61 &5656954068777717115
BoxCollider2D:
  m_ObjectHideFlags: 0
  m_CorrespondingSourceObject: {fileID: 0}
  m_PrefabInstance: {fileID: 0}
  m_PrefabAsset: {fileID: 0}
  m_GameObject: {fileID: 7308513310893812112}
  m_Enabled: 1
  m_Density: 1
  m_Material: {fileID: 0}
  m_IsTrigger: 0
  m_UsedByEffector: 0
  m_UsedByComposite: 0
  m_Offset: {x: 0.031187266, y: 0}
  m_SpriteTilingProperty:
    border: {x: 0, y: 0, z: 0, w: 0}
    pivot: {x: 0.5, y: 0.5}
    oldSize: {x: 2.56, y: 10.24}
    newSize: {x: 2.56, y: 2.56}
    adaptiveTilingThreshold: 0.5
    drawMode: 0
    adaptiveTiling: 0
  m_AutoTiling: 0
  serializedVersion: 2
  m_Size: {x: 1.1565762, y: 10.24}
  m_EdgeRadius: 0
