%YAML 1.1
%TAG !u! tag:unity3d.com,2011:
--- !u!1001 &4372530185363788090
PrefabInstance:
  m_ObjectHideFlags: 0
  serializedVersion: 2
  m_Modification:
    m_TransformParent: {fileID: 0}
    m_Modifications:
    - target: {fileID: 6468109332570585256, guid: 15db4fa0ba448f0439ad5aa8f1875520, type: 3}
      propertyPath: m_Enabled
      value: 0
      objectReference: {fileID: 0}
    - target: {fileID: 6468109332570585256, guid: 15db4fa0ba448f0439ad5aa8f1875520, type: 3}
      propertyPath: m_SpriteTilingProperty.oldSize.x
      value: 2.56
      objectReference: {fileID: 0}
    - target: {fileID: 6468109332570585256, guid: 15db4fa0ba448f0439ad5aa8f1875520, type: 3}
      propertyPath: m_SpriteTilingProperty.oldSize.y
      value: 5.12
      objectReference: {fileID: 0}
    - target: {fileID: 6468109332570585257, guid: 15db4fa0ba448f0439ad5aa8f1875520, type: 3}
      propertyPath: m_LocalScale.x
      value: 0.427071
      objectReference: {fileID: 0}
    - target: {fileID: 6468109332570585257, guid: 15db4fa0ba448f0439ad5aa8f1875520, type: 3}
      propertyPath: m_LocalScale.y
      value: 0.54231244
      objectReference: {fileID: 0}
    - target: {fileID: 6468109332570585257, guid: 15db4fa0ba448f0439ad5aa8f1875520, type: 3}
      propertyPath: m_LocalScale.z
      value: 0.54231244
      objectReference: {fileID: 0}
    - target: {fileID: 6468109332570585257, guid: 15db4fa0ba448f0439ad5aa8f1875520, type: 3}
      propertyPath: m_LocalPosition.x
      value: -0
      objectReference: {fileID: 0}
    - target: {fileID: 6468109332570585257, guid: 15db4fa0ba448f0439ad5aa8f1875520, type: 3}
      propertyPath: m_LocalPosition.y
      value: 1.28
      objectReference: {fileID: 0}
    - target: {fileID: 6468109332570585257, guid: 15db4fa0ba448f0439ad5aa8f1875520, type: 3}
      propertyPath: m_LocalRotation.z
      value: -0
      objectReference: {fileID: 0}
    - target: {fileID: 6468109332570585257, guid: 15db4fa0ba448f0439ad5aa8f1875520, type: 3}
      propertyPath: m_LocalEulerAnglesHint.z
      value: -180
      objectReference: {fileID: 0}
    - target: {fileID: 6468109332570585263, guid: 15db4fa0ba448f0439ad5aa8f1875520, type: 3}
      propertyPath: m_Sprite
      value: 
      objectReference: {fileID: 21300000, guid: 6987f0575bafa71449b2555df45518c7, type: 3}
    - target: {fileID: 6468109333617044118, guid: 15db4fa0ba448f0439ad5aa8f1875520, type: 3}
      propertyPath: m_RootOrder
      value: 0
      objectReference: {fileID: 0}
    - target: {fileID: 6468109333617044118, guid: 15db4fa0ba448f0439ad5aa8f1875520, type: 3}
      propertyPath: m_LocalPosition.x
      value: 0
      objectReference: {fileID: 0}
    - target: {fileID: 6468109333617044118, guid: 15db4fa0ba448f0439ad5aa8f1875520, type: 3}
      propertyPath: m_LocalPosition.y
      value: 0
      objectReference: {fileID: 0}
    - target: {fileID: 6468109333617044118, guid: 15db4fa0ba448f0439ad5aa8f1875520, type: 3}
      propertyPath: m_LocalPosition.z
      value: 0
      objectReference: {fileID: 0}
    - target: {fileID: 6468109333617044118, guid: 15db4fa0ba448f0439ad5aa8f1875520, type: 3}
      propertyPath: m_LocalRotation.w
      value: 1
      objectReference: {fileID: 0}
    - target: {fileID: 6468109333617044118, guid: 15db4fa0ba448f0439ad5aa8f1875520, type: 3}
      propertyPath: m_LocalRotation.x
      value: -0
      objectReference: {fileID: 0}
    - target: {fileID: 6468109333617044118, guid: 15db4fa0ba448f0439ad5aa8f1875520, type: 3}
      propertyPath: m_LocalRotation.y
      value: -0
      objectReference: {fileID: 0}
    - target: {fileID: 6468109333617044118, guid: 15db4fa0ba448f0439ad5aa8f1875520, type: 3}
      propertyPath: m_LocalRotation.z
      value: -0.00000014901158
      objectReference: {fileID: 0}
    - target: {fileID: 6468109333617044118, guid: 15db4fa0ba448f0439ad5aa8f1875520, type: 3}
      propertyPath: m_LocalEulerAnglesHint.x
      value: 0
      objectReference: {fileID: 0}
    - target: {fileID: 6468109333617044118, guid: 15db4fa0ba448f0439ad5aa8f1875520, type: 3}
      propertyPath: m_LocalEulerAnglesHint.y
      value: 0
      objectReference: {fileID: 0}
    - target: {fileID: 6468109333617044118, guid: 15db4fa0ba448f0439ad5aa8f1875520, type: 3}
      propertyPath: m_LocalEulerAnglesHint.z
      value: 0
      objectReference: {fileID: 0}
    - target: {fileID: 6468109333617044119, guid: 15db4fa0ba448f0439ad5aa8f1875520, type: 3}
      propertyPath: m_Name
      value: 28 Shovel
      objectReference: {fileID: 0}
    m_RemovedComponents: []
  m_SourcePrefab: {fileID: 100100000, guid: 15db4fa0ba448f0439ad5aa8f1875520, type: 3}
--- !u!1 &7308513310893812112 stripped
GameObject:
  m_CorrespondingSourceObject: {fileID: 6468109332570585258, guid: 15db4fa0ba448f0439ad5aa8f1875520, type: 3}
  m_PrefabInstance: {fileID: 4372530185363788090}
  m_PrefabAsset: {fileID: 0}
--- !u!60 &9053644922376569139
PolygonCollider2D:
  m_ObjectHideFlags: 0
  m_CorrespondingSourceObject: {fileID: 0}
  m_PrefabInstance: {fileID: 0}
  m_PrefabAsset: {fileID: 0}
  m_GameObject: {fileID: 7308513310893812112}
  m_Enabled: 0
  m_Density: 1
  m_Material: {fileID: 0}
  m_IsTrigger: 0
  m_UsedByEffector: 0
  m_UsedByComposite: 0
  m_Offset: {x: 0, y: 0}
  m_SpriteTilingProperty:
    border: {x: 0, y: 0, z: 0, w: 0}
    pivot: {x: 0.5, y: 0.5}
    oldSize: {x: 2.56, y: 5.12}
    newSize: {x: 2.56, y: 2.56}
    adaptiveTilingThreshold: 0.5
    drawMode: 0
    adaptiveTiling: 0
  m_AutoTiling: 0
  m_Points:
    m_Paths:
    - - {x: -1.27, y: 2.53}
      - {x: -1.27, y: 1.2099999}
      - {x: -0.41, y: 1.0799999}
      - {x: -0.34, y: -2.53}
      - {x: -0.26999998, y: -2.54}
      - {x: 0.29, y: -2.54}
      - {x: 0.37624127, y: 1.0552211}
      - {x: 1.27, y: 1.1999999}
      - {x: 1.27, y: 2.53}
--- !u!61 &9066836089356053443
BoxCollider2D:
  m_ObjectHideFlags: 0
  m_CorrespondingSourceObject: {fileID: 0}
  m_PrefabInstance: {fileID: 0}
  m_PrefabAsset: {fileID: 0}
  m_GameObject: {fileID: 7308513310893812112}
  m_Enabled: 1
  m_Density: 1
  m_Material: {fileID: 0}
  m_IsTrigger: 0
  m_UsedByEffector: 0
  m_UsedByComposite: 0
  m_Offset: {x: 0, y: 1.8398463}
  m_SpriteTilingProperty:
    border: {x: 0, y: 0, z: 0, w: 0}
    pivot: {x: 0.5, y: 0.5}
    oldSize: {x: 2.56, y: 5.12}
    newSize: {x: 2.56, y: 2.56}
    adaptiveTilingThreshold: 0.5
    drawMode: 0
    adaptiveTiling: 0
  m_AutoTiling: 0
  serializedVersion: 2
  m_Size: {x: 1.4767159, y: 1.4403074}
  m_EdgeRadius: 0
--- !u!61 &9203946941184193102
BoxCollider2D:
  m_ObjectHideFlags: 0
  m_CorrespondingSourceObject: {fileID: 0}
  m_PrefabInstance: {fileID: 0}
  m_PrefabAsset: {fileID: 0}
  m_GameObject: {fileID: 7308513310893812112}
  m_Enabled: 1
  m_Density: 1
  m_Material: {fileID: 0}
  m_IsTrigger: 0
  m_UsedByEffector: 0
  m_UsedByComposite: 0
  m_Offset: {x: 0, y: -0.7334007}
  m_SpriteTilingProperty:
    border: {x: 0, y: 0, z: 0, w: 0}
    pivot: {x: 0.5, y: 0.5}
    oldSize: {x: 2.56, y: 5.12}
    newSize: {x: 2.56, y: 2.56}
    adaptiveTilingThreshold: 0.5
    drawMode: 0
    adaptiveTiling: 0
  m_AutoTiling: 0
  serializedVersion: 2
  m_Size: {x: 0.4, y: 3.6531985}
  m_EdgeRadius: 0
