%YAML 1.1
%TAG !u! tag:unity3d.com,2011:
--- !u!1001 &4372530185363788090
PrefabInstance:
  m_ObjectHideFlags: 0
  serializedVersion: 2
  m_Modification:
    m_TransformParent: {fileID: 0}
    m_Modifications:
    - target: {fileID: 6468109332570585256, guid: 15db4fa0ba448f0439ad5aa8f1875520, type: 3}
      propertyPath: m_Enabled
      value: 0
      objectReference: {fileID: 0}
    - target: {fileID: 6468109332570585256, guid: 15db4fa0ba448f0439ad5aa8f1875520, type: 3}
      propertyPath: m_SpriteTilingProperty.oldSize.x
      value: 2.56
      objectReference: {fileID: 0}
    - target: {fileID: 6468109332570585256, guid: 15db4fa0ba448f0439ad5aa8f1875520, type: 3}
      propertyPath: m_SpriteTilingProperty.oldSize.y
      value: 5.12
      objectReference: {fileID: 0}
    - target: {fileID: 6468109332570585257, guid: 15db4fa0ba448f0439ad5aa8f1875520, type: 3}
      propertyPath: m_LocalScale.x
      value: 0.54927
      objectReference: {fileID: 0}
    - target: {fileID: 6468109332570585257, guid: 15db4fa0ba448f0439ad5aa8f1875520, type: 3}
      propertyPath: m_LocalScale.y
      value: 0.54927
      objectReference: {fileID: 0}
    - target: {fileID: 6468109332570585257, guid: 15db4fa0ba448f0439ad5aa8f1875520, type: 3}
      propertyPath: m_LocalScale.z
      value: 0.54927
      objectReference: {fileID: 0}
    - target: {fileID: 6468109332570585257, guid: 15db4fa0ba448f0439ad5aa8f1875520, type: 3}
      propertyPath: m_LocalPosition.x
      value: -0.01
      objectReference: {fileID: 0}
    - target: {fileID: 6468109332570585257, guid: 15db4fa0ba448f0439ad5aa8f1875520, type: 3}
      propertyPath: m_LocalPosition.y
      value: 0.19
      objectReference: {fileID: 0}
    - target: {fileID: 6468109332570585257, guid: 15db4fa0ba448f0439ad5aa8f1875520, type: 3}
      propertyPath: m_LocalRotation.w
      value: 0.7981411
      objectReference: {fileID: 0}
    - target: {fileID: 6468109332570585257, guid: 15db4fa0ba448f0439ad5aa8f1875520, type: 3}
      propertyPath: m_LocalRotation.z
      value: 0.60247064
      objectReference: {fileID: 0}
    - target: {fileID: 6468109332570585257, guid: 15db4fa0ba448f0439ad5aa8f1875520, type: 3}
      propertyPath: m_LocalEulerAnglesHint.z
      value: 74.094
      objectReference: {fileID: 0}
    - target: {fileID: 6468109332570585263, guid: 15db4fa0ba448f0439ad5aa8f1875520, type: 3}
      propertyPath: m_Sprite
      value: 
      objectReference: {fileID: 21300000, guid: 4e0d3ae0a13485f44a2170e76db42c9b, type: 3}
    - target: {fileID: 6468109333617044118, guid: 15db4fa0ba448f0439ad5aa8f1875520, type: 3}
      propertyPath: m_RootOrder
      value: 0
      objectReference: {fileID: 0}
    - target: {fileID: 6468109333617044118, guid: 15db4fa0ba448f0439ad5aa8f1875520, type: 3}
      propertyPath: m_LocalPosition.x
      value: 0
      objectReference: {fileID: 0}
    - target: {fileID: 6468109333617044118, guid: 15db4fa0ba448f0439ad5aa8f1875520, type: 3}
      propertyPath: m_LocalPosition.y
      value: 0
      objectReference: {fileID: 0}
    - target: {fileID: 6468109333617044118, guid: 15db4fa0ba448f0439ad5aa8f1875520, type: 3}
      propertyPath: m_LocalPosition.z
      value: 0
      objectReference: {fileID: 0}
    - target: {fileID: 6468109333617044118, guid: 15db4fa0ba448f0439ad5aa8f1875520, type: 3}
      propertyPath: m_LocalRotation.w
      value: 1
      objectReference: {fileID: 0}
    - target: {fileID: 6468109333617044118, guid: 15db4fa0ba448f0439ad5aa8f1875520, type: 3}
      propertyPath: m_LocalRotation.x
      value: -0
      objectReference: {fileID: 0}
    - target: {fileID: 6468109333617044118, guid: 15db4fa0ba448f0439ad5aa8f1875520, type: 3}
      propertyPath: m_LocalRotation.y
      value: -0
      objectReference: {fileID: 0}
    - target: {fileID: 6468109333617044118, guid: 15db4fa0ba448f0439ad5aa8f1875520, type: 3}
      propertyPath: m_LocalRotation.z
      value: -0.00000014901158
      objectReference: {fileID: 0}
    - target: {fileID: 6468109333617044118, guid: 15db4fa0ba448f0439ad5aa8f1875520, type: 3}
      propertyPath: m_LocalEulerAnglesHint.x
      value: 0
      objectReference: {fileID: 0}
    - target: {fileID: 6468109333617044118, guid: 15db4fa0ba448f0439ad5aa8f1875520, type: 3}
      propertyPath: m_LocalEulerAnglesHint.y
      value: 0
      objectReference: {fileID: 0}
    - target: {fileID: 6468109333617044118, guid: 15db4fa0ba448f0439ad5aa8f1875520, type: 3}
      propertyPath: m_LocalEulerAnglesHint.z
      value: 0
      objectReference: {fileID: 0}
    - target: {fileID: 6468109333617044119, guid: 15db4fa0ba448f0439ad5aa8f1875520, type: 3}
      propertyPath: m_Name
      value: 9 Shabby Shield
      objectReference: {fileID: 0}
    m_RemovedComponents: []
  m_SourcePrefab: {fileID: 100100000, guid: 15db4fa0ba448f0439ad5aa8f1875520, type: 3}
--- !u!1 &7308513310893812112 stripped
GameObject:
  m_CorrespondingSourceObject: {fileID: 6468109332570585258, guid: 15db4fa0ba448f0439ad5aa8f1875520, type: 3}
  m_PrefabInstance: {fileID: 4372530185363788090}
  m_PrefabAsset: {fileID: 0}
--- !u!60 &8569756956137058074
PolygonCollider2D:
  m_ObjectHideFlags: 0
  m_CorrespondingSourceObject: {fileID: 0}
  m_PrefabInstance: {fileID: 0}
  m_PrefabAsset: {fileID: 0}
  m_GameObject: {fileID: 7308513310893812112}
  m_Enabled: 0
  m_Density: 1
  m_Material: {fileID: 0}
  m_IsTrigger: 0
  m_UsedByEffector: 0
  m_UsedByComposite: 0
  m_Offset: {x: 0, y: 0}
  m_SpriteTilingProperty:
    border: {x: 0, y: 0, z: 0, w: 0}
    pivot: {x: 0.5, y: 0.5}
    oldSize: {x: 2.56, y: 5.12}
    newSize: {x: 2.56, y: 2.56}
    adaptiveTilingThreshold: 0.5
    drawMode: 0
    adaptiveTiling: 0
  m_AutoTiling: 0
  m_Points:
    m_Paths:
    - - {x: 0.74, y: -1.36}
      - {x: 0.9, y: -1}
      - {x: 0.95, y: -0.81}
      - {x: 1.01, y: -0.59999996}
      - {x: 1.05, y: -0.42999998}
      - {x: 1.0799999, y: -0.28}
      - {x: 1.11, y: -0.099999994}
      - {x: 1.14, y: 0.13}
      - {x: 1.16, y: 0.34}
      - {x: 1.17, y: 0.51}
      - {x: 1.17, y: 0.93}
      - {x: 1.16, y: 1.09}
      - {x: 1.14, y: 1.28}
      - {x: 1.13, y: 1.31}
      - {x: 1.09, y: 1.36}
      - {x: 0.66999996, y: 1.81}
      - {x: 0.52, y: 1.9799999}
      - {x: 0.38, y: 2.1299999}
      - {x: 0.25, y: 2.1299999}
      - {x: -0.17, y: 1.89}
      - {x: -0.26999998, y: 1.86}
      - {x: -0.45999998, y: 1.77}
      - {x: -0.71, y: 1.68}
      - {x: -1.0699999, y: 1.5799999}
      - {x: -1.13, y: 1.56}
      - {x: -1.15, y: 1.42}
      - {x: -1.17, y: 1.0699999}
      - {x: -1.18, y: 0.84999996}
      - {x: -1.18, y: 0.56}
      - {x: -1.17, y: 0.35999998}
      - {x: -1.16, y: 0.22999999}
      - {x: -1.14, y: 0.049999997}
      - {x: -1.11, y: -0.14999999}
      - {x: -1.09, y: -0.26999998}
      - {x: -1.0799999, y: -0.32}
      - {x: -1.0699999, y: -0.35999998}
      - {x: -1.04, y: -0.5}
      - {x: -0.96999997, y: -0.74}
      - {x: -0.90999997, y: -0.89}
      - {x: -0.85999995, y: -1.01}
      - {x: -0.76, y: -1.22}
      - {x: -0.64, y: -1.42}
      - {x: -0.48, y: -1.63}
      - {x: -0.14999999, y: -1.9499999}
      - {x: -0.02, y: -2.03}
      - {x: 0.17, y: -2.12}
      - {x: 0.21, y: -2.1299999}
      - {x: 0.28, y: -2.1299999}
      - {x: 0.34, y: -2.06}
      - {x: 0.48, y: -1.8499999}
      - {x: 0.59, y: -1.67}
--- !u!61 &8837523930281853281
BoxCollider2D:
  m_ObjectHideFlags: 0
  m_CorrespondingSourceObject: {fileID: 0}
  m_PrefabInstance: {fileID: 0}
  m_PrefabAsset: {fileID: 0}
  m_GameObject: {fileID: 7308513310893812112}
  m_Enabled: 1
  m_Density: 1
  m_Material: {fileID: 0}
  m_IsTrigger: 0
  m_UsedByEffector: 0
  m_UsedByComposite: 0
  m_Offset: {x: 0, y: 0}
  m_SpriteTilingProperty:
    border: {x: 0, y: 0, z: 0, w: 0}
    pivot: {x: 0.5, y: 0.5}
    oldSize: {x: 2.56, y: 5.12}
    newSize: {x: 2.56, y: 2.56}
    adaptiveTilingThreshold: 0.5
    drawMode: 0
    adaptiveTiling: 0
  m_AutoTiling: 0
  serializedVersion: 2
  m_Size: {x: 2.56, y: 4.26}
  m_EdgeRadius: 0
