%YAML 1.1
%TAG !u! tag:unity3d.com,2011:
--- !u!114 &11400000
MonoBehaviour:
  m_ObjectHideFlags: 0
  m_CorrespondingSourceObject: {fileID: 0}
  m_PrefabInstance: {fileID: 0}
  m_PrefabAsset: {fileID: 0}
  m_GameObject: {fileID: 0}
  m_Enabled: 1
  m_EditorHideFlags: 0
  m_Script: {fileID: 11500000, guid: c3b1ebc063298c04c8eec2e03434d6b9, type: 3}
  m_Name: 24 Shabby Mace
  m_EditorClassIdentifier: 
  id: 39
  weaponName: Shabby Mace
  cost: 700
  unlocksAtLevel: 0
  itemUnlockMethod: 1
  isDefault: 0
  icon: {fileID: 21300000, guid: 1dc204324dfe82e42bf37a1373a1d49f, type: 3}
  shopItemType: 1
  damage: 15
