%YAML 1.1
%TAG !u! tag:unity3d.com,2011:
--- !u!114 &11400000
MonoBehaviour:
  m_ObjectHideFlags: 0
  m_CorrespondingSourceObject: {fileID: 0}
  m_PrefabInstance: {fileID: 0}
  m_PrefabAsset: {fileID: 0}
  m_GameObject: {fileID: 0}
  m_Enabled: 1
  m_EditorHideFlags: 0
  m_Script: {fileID: 11500000, guid: c3b1ebc063298c04c8eec2e03434d6b9, type: 3}
  m_Name: 1 Head
  m_EditorClassIdentifier: 
  id: 0
  weaponName: 1 Head
  cost: 0
  unlocksAtLevel: 0
  itemUnlockMethod: 2
  isDefault: 1
  icon: {fileID: 21300000, guid: 35f3c46a29c20d04e92d8f1332865bda, type: 3}
  shopItemType: 10
  damage: 0
