{
    "packages": [
        {
            "version": "1.3.16",
            "name": "com.lionstudios.release.lionanalytics",
            "dependencies": [
                {
                    "version": "0.9.9",
                    "name": "com.lionstudios.release.lionkitcore"
                },
                {
                    "version": "1.4.3",
                    "name": "com.lionstudios.release.lionsdkservice"
                }
            ]
        },
        {
            "version": "6.0.5",
            "name": "com.unity.2d.animation",
            "dependencies": [
                {
                    "version": "5.0.0",
                    "name": "com.unity.2d.common"
                },
                {
                    "version": "1.1.0",
                    "name": "com.unity.mathematics"
                },
                {
                    "version": "1.0.0",
                    "name": "com.unity.2d.sprite"
                },
                {
                    "version": "1.0.0",
                    "name": "com.unity.modules.animation"
                },
                {
                    "version": "1.0.0",
                    "name": "com.unity.modules.uielements"
                }
            ]
        },
        {
            "version": "5.0.1",
            "name": "com.unity.2d.pixel-perfect",
            "dependencies": []
        },
        {
            "version": "5.0.4",
            "name": "com.unity.2d.psdimporter",
            "dependencies": [
                {
                    "version": "5.0.0",
                    "name": "com.unity.2d.common"
                },
                {
                    "version": "6.0.4",
                    "name": "com.unity.2d.animation"
                },
                {
                    "version": "1.0.0",
                    "name": "com.unity.2d.sprite"
                }
            ]
        },
        {
            "version": "1.0.0",
            "name": "com.unity.2d.sprite",
            "dependencies": []
        },
        {
            "version": "6.0.1",
            "name": "com.unity.2d.spriteshape",
            "dependencies": [
                {
                    "version": "1.1.0",
                    "name": "com.unity.mathematics"
                },
                {
                    "version": "5.0.0",
                    "name": "com.unity.2d.common"
                },
                {
                    "version": "5.0.0",
                    "name": "com.unity.2d.path"
                },
                {
                    "version": "1.0.0",
                    "name": "com.unity.modules.physics2d"
                }
            ]
        },
        {
            "version": "1.0.0",
            "name": "com.unity.2d.tilemap",
            "dependencies": []
        },
        {
            "version": "2.2.0",
            "name": "com.unity.2d.tilemap.extras",
            "dependencies": [
                {
                    "version": "1.0.0",
                    "name": "com.unity.modules.tilemap"
                },
                {
                    "version": "1.0.0",
                    "name": "com.unity.2d.tilemap"
                },
                {
                    "version": "1.0.0",
                    "name": "com.unity.ugui"
                },
                {
                    "version": "1.0.0",
                    "name": "com.unity.modules.jsonserialize"
                }
            ]
        },
        {
            "version": "1.13.5",
            "name": "com.unity.collab-proxy",
            "dependencies": [
                {
                    "version": "2.0.0",
                    "name": "com.unity.nuget.newtonsoft-json"
                },
                {
                    "version": "1.0.1",
                    "name": "com.unity.services.core"
                }
            ]
        },
        {
            "version": "3.0.7",
            "name": "com.unity.ide.rider",
            "dependencies": [
                {
                    "version": "1.0.6",
                    "name": "com.unity.ext.nunit"
                }
            ]
        },
        {
            "version": "2.0.11",
            "name": "com.unity.ide.visualstudio",
            "dependencies": [
                {
                    "version": "1.1.9",
                    "name": "com.unity.test-framework"
                }
            ]
        },
        {
            "version": "1.2.4",
            "name": "com.unity.ide.vscode",
            "dependencies": []
        },
        {
            "version": "1.1.29",
            "name": "com.unity.test-framework",
            "dependencies": [
                {
                    "version": "1.0.6",
                    "name": "com.unity.ext.nunit"
                },
                {
                    "version": "1.0.0",
                    "name": "com.unity.modules.imgui"
                },
                {
                    "version": "1.0.0",
                    "name": "com.unity.modules.jsonserialize"
                }
            ]
        },
        {
            "version": "3.0.6",
            "name": "com.unity.textmeshpro",
            "dependencies": [
                {
                    "version": "1.0.0",
                    "name": "com.unity.ugui"
                }
            ]
        },
        {
            "version": "1.5.6",
            "name": "com.unity.timeline",
            "dependencies": [
                {
                    "version": "1.0.0",
                    "name": "com.unity.modules.director"
                },
                {
                    "version": "1.0.0",
                    "name": "com.unity.modules.animation"
                },
                {
                    "version": "1.0.0",
                    "name": "com.unity.modules.audio"
                },
                {
                    "version": "1.0.0",
                    "name": "com.unity.modules.particlesystem"
                }
            ]
        },
        {
            "version": "1.0.0",
            "name": "com.unity.ugui",
            "dependencies": [
                {
                    "version": "1.0.0",
                    "name": "com.unity.modules.ui"
                },
                {
                    "version": "1.0.0",
                    "name": "com.unity.modules.imgui"
                }
            ]
        },
        {
            "version": "1.6.1",
            "name": "com.unity.visualscripting",
            "dependencies": [
                {
                    "version": "1.0.0",
                    "name": "com.unity.ugui"
                },
                {
                    "version": "1.0.0",
                    "name": "com.unity.modules.ai"
                },
                {
                    "version": "1.0.0",
                    "name": "com.unity.modules.animation"
                },
                {
                    "version": "1.0.0",
                    "name": "com.unity.modules.jsonserialize"
                },
                {
                    "version": "1.0.0",
                    "name": "com.unity.modules.particlesystem"
                },
                {
                    "version": "1.0.0",
                    "name": "com.unity.modules.physics"
                },
                {
                    "version": "1.0.0",
                    "name": "com.unity.modules.physics2d"
                }
            ]
        },
        {
            "version": "1.0.0",
            "name": "com.unity.modules.ai",
            "dependencies": []
        },
        {
            "version": "1.0.0",
            "name": "com.unity.modules.androidjni",
            "dependencies": []
        },
        {
            "version": "1.0.0",
            "name": "com.unity.modules.animation",
            "dependencies": []
        },
        {
            "version": "1.0.0",
            "name": "com.unity.modules.assetbundle",
            "dependencies": []
        },
        {
            "version": "1.0.0",
            "name": "com.unity.modules.audio",
            "dependencies": []
        },
        {
            "version": "1.0.0",
            "name": "com.unity.modules.cloth",
            "dependencies": [
                {
                    "version": "1.0.0",
                    "name": "com.unity.modules.physics"
                }
            ]
        },
        {
            "version": "1.0.0",
            "name": "com.unity.modules.director",
            "dependencies": [
                {
                    "version": "1.0.0",
                    "name": "com.unity.modules.audio"
                },
                {
                    "version": "1.0.0",
                    "name": "com.unity.modules.animation"
                }
            ]
        },
        {
            "version": "1.0.0",
            "name": "com.unity.modules.imageconversion",
            "dependencies": []
        },
        {
            "version": "1.0.0",
            "name": "com.unity.modules.imgui",
            "dependencies": []
        },
        {
            "version": "1.0.0",
            "name": "com.unity.modules.jsonserialize",
            "dependencies": []
        },
        {
            "version": "1.0.0",
            "name": "com.unity.modules.particlesystem",
            "dependencies": []
        },
        {
            "version": "1.0.0",
            "name": "com.unity.modules.physics",
            "dependencies": []
        },
        {
            "version": "1.0.0",
            "name": "com.unity.modules.physics2d",
            "dependencies": []
        },
        {
            "version": "1.0.0",
            "name": "com.unity.modules.screencapture",
            "dependencies": [
                {
                    "version": "1.0.0",
                    "name": "com.unity.modules.imageconversion"
                }
            ]
        },
        {
            "version": "1.0.0",
            "name": "com.unity.modules.terrain",
            "dependencies": []
        },
        {
            "version": "1.0.0",
            "name": "com.unity.modules.terrainphysics",
            "dependencies": [
                {
                    "version": "1.0.0",
                    "name": "com.unity.modules.physics"
                },
                {
                    "version": "1.0.0",
                    "name": "com.unity.modules.terrain"
                }
            ]
        },
        {
            "version": "1.0.0",
            "name": "com.unity.modules.tilemap",
            "dependencies": [
                {
                    "version": "1.0.0",
                    "name": "com.unity.modules.physics2d"
                }
            ]
        },
        {
            "version": "1.0.0",
            "name": "com.unity.modules.ui",
            "dependencies": []
        },
        {
            "version": "1.0.0",
            "name": "com.unity.modules.uielements",
            "dependencies": [
                {
                    "version": "1.0.0",
                    "name": "com.unity.modules.ui"
                },
                {
                    "version": "1.0.0",
                    "name": "com.unity.modules.imgui"
                },
                {
                    "version": "1.0.0",
                    "name": "com.unity.modules.jsonserialize"
                },
                {
                    "version": "1.0.0",
                    "name": "com.unity.modules.uielementsnative"
                }
            ]
        },
        {
            "version": "1.0.0",
            "name": "com.unity.modules.umbra",
            "dependencies": []
        },
        {
            "version": "1.0.0",
            "name": "com.unity.modules.unityanalytics",
            "dependencies": [
                {
                    "version": "1.0.0",
                    "name": "com.unity.modules.unitywebrequest"
                },
                {
                    "version": "1.0.0",
                    "name": "com.unity.modules.jsonserialize"
                }
            ]
        },
        {
            "version": "1.0.0",
            "name": "com.unity.modules.unitywebrequest",
            "dependencies": []
        },
        {
            "version": "1.0.0",
            "name": "com.unity.modules.unitywebrequestassetbundle",
            "dependencies": [
                {
                    "version": "1.0.0",
                    "name": "com.unity.modules.assetbundle"
                },
                {
                    "version": "1.0.0",
                    "name": "com.unity.modules.unitywebrequest"
                }
            ]
        },
        {
            "version": "1.0.0",
            "name": "com.unity.modules.unitywebrequestaudio",
            "dependencies": [
                {
                    "version": "1.0.0",
                    "name": "com.unity.modules.unitywebrequest"
                },
                {
                    "version": "1.0.0",
                    "name": "com.unity.modules.audio"
                }
            ]
        },
        {
            "version": "1.0.0",
            "name": "com.unity.modules.unitywebrequesttexture",
            "dependencies": [
                {
                    "version": "1.0.0",
                    "name": "com.unity.modules.unitywebrequest"
                },
                {
                    "version": "1.0.0",
                    "name": "com.unity.modules.imageconversion"
                }
            ]
        },
        {
            "version": "1.0.0",
            "name": "com.unity.modules.unitywebrequestwww",
            "dependencies": [
                {
                    "version": "1.0.0",
                    "name": "com.unity.modules.unitywebrequest"
                },
                {
                    "version": "1.0.0",
                    "name": "com.unity.modules.unitywebrequestassetbundle"
                },
                {
                    "version": "1.0.0",
                    "name": "com.unity.modules.unitywebrequestaudio"
                },
                {
                    "version": "1.0.0",
                    "name": "com.unity.modules.audio"
                },
                {
                    "version": "1.0.0",
                    "name": "com.unity.modules.assetbundle"
                },
                {
                    "version": "1.0.0",
                    "name": "com.unity.modules.imageconversion"
                }
            ]
        },
        {
            "version": "3.3.0",
            "name": "com.coffee.ui-particle",
            "dependencies": []
        },
        {
            "version": "1.0.0",
            "name": "com.unity.modules.vehicles",
            "dependencies": [
                {
                    "version": "1.0.0",
                    "name": "com.unity.modules.physics"
                }
            ]
        },
        {
            "version": "1.0.0",
            "name": "com.unity.modules.video",
            "dependencies": [
                {
                    "version": "1.0.0",
                    "name": "com.unity.modules.audio"
                },
                {
                    "version": "1.0.0",
                    "name": "com.unity.modules.ui"
                },
                {
                    "version": "1.0.0",
                    "name": "com.unity.modules.unitywebrequest"
                }
            ]
        },
        {
            "version": "1.0.0",
            "name": "com.unity.modules.vr",
            "dependencies": [
                {
                    "version": "1.0.0",
                    "name": "com.unity.modules.jsonserialize"
                },
                {
                    "version": "1.0.0",
                    "name": "com.unity.modules.physics"
                },
                {
                    "version": "1.0.0",
                    "name": "com.unity.modules.xr"
                }
            ]
        },
        {
            "version": "1.0.0",
            "name": "com.unity.modules.wind",
            "dependencies": []
        },
        {
            "version": "1.0.0",
            "name": "com.unity.modules.xr",
            "dependencies": [
                {
                    "version": "1.0.0",
                    "name": "com.unity.modules.physics"
                },
                {
                    "version": "1.0.0",
                    "name": "com.unity.modules.jsonserialize"
                },
                {
                    "version": "1.0.0",
                    "name": "com.unity.modules.subsystems"
                }
            ]
        }
    ]
}