%YAML 1.1
%TAG !u! tag:unity3d.com,2011:
--- !u!114 &11400000
MonoBehaviour:
  m_ObjectHideFlags: 0
  m_CorrespondingSourceObject: {fileID: 0}
  m_PrefabInstance: {fileID: 0}
  m_PrefabAsset: {fileID: 0}
  m_GameObject: {fileID: 0}
  m_Enabled: 1
  m_EditorHideFlags: 0
  m_Script: {fileID: 11500000, guid: 9d267a11399d8d547bd0a2696dbd0d4f, type: 3}
  m_Name: 7 Level
  m_EditorClassIdentifier: 
  upperBody: 0
  lowerBody: 1
  head: 2
  torso: 0
